example_trace.vcd
$comment /home/lab/artiq-files/dnamic-lab/results/2026-02-19/16/000001001-LoadMOTToTweezersImageTEMPExp/trace.vcd $end
$date 2026-02-19 16:04:57 $end
$timescale 1 ns $end
$version 9.1474+963c2a2 $end
$scope module core $end
$var reg 1 ! reset $end
$upscope $end
$scope module spi_zotino0 $end
$var integer 64 " cfg_transfer_length $end
$var integer 64 # cfg_chip_select $end
$var integer 64 $ cfg_clk_divider $end
$var integer 64 % cfg_flags $end
$var integer 64 & mosi $end
$upscope $end
$scope module suservo0_ch0 $end
$var event 1 5! call $end
$var string 1 6! function $end
$upscope $end
$scope module ttl0 $end
$var reg 1 7! state $end
$upscope $end
$scope module ttl1 $end
$var reg 1 8! state $end
$upscope $end
$scope module ttl10 $end
$var reg 1 @! state $end
$upscope $end
$scope module ttl11 $end
$var reg 1 A! state $end
$upscope $end
$scope module ttl16 $end
$var reg 1 +! state $end
$upscope $end
$scope module ttl17 $end
$var reg 1 B! state $end
$upscope $end
$scope module ttl18 $end
$var reg 1 C! state $end
$upscope $end
$scope module ttl19 $end
$var reg 1 D! state $end
$upscope $end
$scope module ttl2 $end
$var reg 1 4! state $end
$upscope $end
$scope module ttl20 $end
$var reg 1 E! state $end
$upscope $end
$scope module ttl21 $end
$var reg 1 F! state $end
$upscope $end
$scope module ttl22 $end
$var reg 1 G! state $end
$upscope $end
$scope module ttl23 $end
$var reg 1 H! state $end
$upscope $end
$scope module ttl24 $end
$var reg 1 I! state $end
$upscope $end
$scope module ttl25 $end
$var reg 1 J! state $end
$upscope $end
$scope module ttl26 $end
$var reg 1 K! state $end
$upscope $end
$scope module ttl27 $end
$var reg 1 L! state $end
$upscope $end
$scope module ttl28 $end
$var reg 1 M! state $end
$upscope $end
$scope module ttl29 $end
$var reg 1 N! state $end
$upscope $end
$scope module ttl3 $end
$var reg 1 9! state $end
$upscope $end
$scope module ttl30 $end
$var reg 1 O! state $end
$upscope $end
$scope module ttl31 $end
$var reg 1 P! state $end
$upscope $end
$scope module ttl32 $end
$var reg 1 Q! state $end
$upscope $end
$scope module ttl33 $end
$var reg 1 2! state $end
$upscope $end
$scope module ttl34 $end
$var reg 1 R! state $end
$upscope $end
$scope module ttl35 $end
$var reg 1 3! state $end
$upscope $end
$scope module ttl36 $end
$var reg 1 S! state $end
$upscope $end
$scope module ttl37 $end
$var reg 1 T! state $end
$upscope $end
$scope module ttl38 $end
$var reg 1 U! state $end
$upscope $end
$scope module ttl39 $end
$var reg 1 V! state $end
$upscope $end
$scope module ttl4 $end
$var reg 1 :! state $end
$upscope $end
$scope module ttl40 $end
$var reg 1 W! state $end
$upscope $end
$scope module ttl41 $end
$var reg 1 X! state $end
$upscope $end
$scope module ttl42 $end
$var reg 1 Y! state $end
$upscope $end
$scope module ttl43 $end
$var reg 1 Z! state $end
$upscope $end
$scope module ttl44 $end
$var reg 1 [! state $end
$upscope $end
$scope module ttl45 $end
$var reg 1 \! state $end
$upscope $end
$scope module ttl46 $end
$var reg 1 ]! state $end
$upscope $end
$scope module ttl47 $end
$var reg 1 ^! state $end
$upscope $end
$scope module ttl5 $end
$var reg 1 ;! state $end
$upscope $end
$scope module ttl6 $end
$var reg 1 <! state $end
$upscope $end
$scope module ttl7 $end
$var reg 1 =! state $end
$upscope $end
$scope module ttl8 $end
$var reg 1 >! state $end
$upscope $end
$scope module ttl9 $end
$var reg 1 ?! state $end
$upscope $end
$scope module urukul5_ch0 $end
$var event 1 ,! call $end
$var string 1 -! function $end
$upscope $end
$scope module urukul5_ch1 $end
$var event 1 .! call $end
$var string 1 /! function $end
$upscope $end
$scope module urukul5_cpld $end
$var event 1 0! call $end
$var string 1 1! function $end
$upscope $end
$scope module zotino0 $end
$var reg 1 ' init $end
$var real 64 ( v_out_0 $end
$var real 64 ) v_out_1 $end
$var real 64 * v_out_2 $end
$var real 64 + v_out_3 $end
$var real 64 , v_out_4 $end
$var real 64 - v_out_5 $end
$var real 64 . v_out_6 $end
$var real 64 / v_out_7 $end
$var real 64 0 v_out_8 $end
$var real 64 1 v_out_9 $end
$var real 64 2 v_out_10 $end
$var real 64 3 v_out_11 $end
$var real 64 4 v_out_12 $end
$var real 64 5 v_out_13 $end
$var real 64 6 v_out_14 $end
$var real 64 7 v_out_15 $end
$var real 64 8 v_out_16 $end
$var real 64 9 v_out_17 $end
$var real 64 : v_out_18 $end
$var real 64 ; v_out_19 $end
$var real 64 < v_out_20 $end
$var real 64 = v_out_21 $end
$var real 64 > v_out_22 $end
$var real 64 ? v_out_23 $end
$var real 64 @ v_out_24 $end
$var real 64 A v_out_25 $end
$var real 64 B v_out_26 $end
$var real 64 C v_out_27 $end
$var real 64 D v_out_28 $end
$var real 64 E v_out_29 $end
$var real 64 F v_out_30 $end
$var real 64 G v_out_31 $end
$var real 64 H v_offset_0 $end
$var real 64 I v_offset_1 $end
$var real 64 J v_offset_2 $end
$var real 64 K v_offset_3 $end
$var real 64 L v_offset_4 $end
$var real 64 M v_offset_5 $end
$var real 64 N v_offset_6 $end
$var real 64 O v_offset_7 $end
$var real 64 P v_offset_8 $end
$var real 64 Q v_offset_9 $end
$var real 64 R v_offset_10 $end
$var real 64 S v_offset_11 $end
$var real 64 T v_offset_12 $end
$var real 64 U v_offset_13 $end
$var real 64 V v_offset_14 $end
$var real 64 W v_offset_15 $end
$var real 64 X v_offset_16 $end
$var real 64 Y v_offset_17 $end
$var real 64 Z v_offset_18 $end
$var real 64 [ v_offset_19 $end
$var real 64 \ v_offset_20 $end
$var real 64 ] v_offset_21 $end
$var real 64 ^ v_offset_22 $end
$var real 64 _ v_offset_23 $end
$var real 64 ` v_offset_24 $end
$var real 64 a v_offset_25 $end
$var real 64 b v_offset_26 $end
$var real 64 c v_offset_27 $end
$var real 64 d v_offset_28 $end
$var real 64 e v_offset_29 $end
$var real 64 f v_offset_30 $end
$var real 64 g v_offset_31 $end
$var real 64 h gain_0 $end
$var real 64 i gain_1 $end
$var real 64 j gain_2 $end
$var real 64 k gain_3 $end
$var real 64 l gain_4 $end
$var real 64 m gain_5 $end
$var real 64 n gain_6 $end
$var real 64 o gain_7 $end
$var real 64 p gain_8 $end
$var real 64 q gain_9 $end
$var real 64 r gain_10 $end
$var real 64 s gain_11 $end
$var real 64 t gain_12 $end
$var real 64 u gain_13 $end
$var real 64 v gain_14 $end
$var real 64 w gain_15 $end
$var real 64 x gain_16 $end
$var real 64 y gain_17 $end
$var real 64 z gain_18 $end
$var real 64 { gain_19 $end
$var real 64 | gain_20 $end
$var real 64 } gain_21 $end
$var real 64 ~ gain_22 $end
$var real 64 !! gain_23 $end
$var real 64 "! gain_24 $end
$var real 64 #! gain_25 $end
$var real 64 $! gain_26 $end
$var real 64 %! gain_27 $end
$var real 64 &! gain_28 $end
$var real 64 '! gain_29 $end
$var real 64 (! gain_30 $end
$var real 64 )! gain_31 $end
$var reg 8 *! led $end
$upscope $end
$enddefinitions $end
#0
$dumpvars
x!
bx "
bx #
bx $
bx %
bx &
x'
r0 (
r0 )
r0 *
r0 +
r0 ,
r0 -
r0 .
r0 /
r0 0
r0 1
r0 2
r0 3
r0 4
r0 5
r0 6
r0 7
r0 8
r0 9
r0 :
r0 ;
r0 <
r0 =
r0 >
r0 ?
r0 @
r0 A
r0 B
r0 C
r0 D
r0 E
r0 F
r0 G
r0 H
r0 I
r0 J
r0 K
r0 L
r0 M
r0 N
r0 O
r0 P
r0 Q
r0 R
r0 S
r0 T
r0 U
r0 V
r0 W
r0 X
r0 Y
r0 Z
r0 [
r0 \
r0 ]
r0 ^
r0 _
r0 `
r0 a
r0 b
r0 c
r0 d
r0 e
r0 f
r0 g
r0 h
r0 i
r0 j
r0 k
r0 l
r0 m
r0 n
r0 o
r0 p
r0 q
r0 r
r0 s
r0 t
r0 u
r0 v
r0 w
r0 x
r0 y
r0 z
r0 {
r0 |
r0 }
r0 ~
r0 !!
r0 "!
r0 #!
r0 $!
r0 %!
r0 &!
r0 '!
r0 (!
r0 )!
bx *!
x+!
s -!
s /!
s 1!
x2!
x3!
x4!
s 6!
x7!
x8!
x9!
x:!
x;!
x<!
x=!
x>!
x?!
x@!
xA!
xB!
xC!
xD!
xE!
xF!
xG!
xH!
xI!
xJ!
xK!
xL!
xM!
xN!
xO!
xP!
xQ!
xR!
xS!
xT!
xU!
xV!
xW!
xX!
xY!
xZ!
x[!
x\!
x]!
x^!
$end
#164998
1'
07!
08!
04!
09!
0:!
0;!
0<!
0=!
0>!
0?!
0@!
0A!
0+!
0B!
0C!
0D!
0E!
0F!
0G!
0H!
0I!
0J!
0K!
0L!
0M!
0N!
0O!
0P!
0Q!
02!
0R!
03!
0S!
0T!
0U!
0V!
0W!
0X!
0Y!
0Z!
0[!
0\!
0]!
0^!
#165007
#20290015
r0.4998779296875 (
r0.29998779296875 )
r0.40008544921875 *
#20290024
r7.9998779296875 +
1+!
#30290023
12!
13!
#40290022
1,!
sset(110000000.0,amplitude=0.6) -!
1.!
sset(110000000.0,amplitude=0.6) /!
1,!
ssw.on() -!
1.!
ssw.on() /!
14!
#40390021
04!
15!
sset_dds_offset(0,-0.1) 6!
#140490037
r0.49713134765625 (
#140590045
r0.49407958984375 (
#140690053
r0.49102783203125 (
#140790061
r0.48797607421875 (
#140890069
r0.48492431640625 (
#140990077
r0.48187255859375 (
#141090085
r0.4791259765625 (
#141190093
r0.47607421875 (
#141290101
r0.4730224609375 (
#141390109
r0.469970703125 (
#141490117
r0.4669189453125 (
#141590125
r0.4638671875 (
#141690133
r0.46112060546875 (
#141790141
r0.45806884765625 (
#141890149
r0.45501708984375 (
#141990157
r0.45196533203125 (
#142090165
r0.44891357421875 (
#142190173
r0.44586181640625 (
#142290181
r0.443115234375 (
#142390189
r0.4400634765625 (
#142490197
r0.43701171875 (
#142590205
r0.4339599609375 (
#142690213
r0.430908203125 (
#142790221
r0.4278564453125 (
#142890229
r0.42510986328125 (
#142990237
r0.42205810546875 (
#143090245
r0.41900634765625 (
#143190253
r0.41595458984375 (
#143290261
r0.41290283203125 (
#143390269
r0.40985107421875 (
#143490277
r0.4071044921875 (
#143590285
r0.404052734375 (
#143690293
r0.4010009765625 (
#143790301
r0.39794921875 (
#143890309
r0.3948974609375 (
#143990317
r0.39215087890625 (
#144090325
r0.38909912109375 (
#144190333
r0.38604736328125 (
#144290341
r0.38299560546875 (
#144390349
r0.37994384765625 (
#144490357
r0.37689208984375 (
#144590365
r0.3741455078125 (
#144690373
r0.37109375 (
#144790381
r0.3680419921875 (
#144890389
r0.364990234375 (
#144990397
r0.3619384765625 (
#145090405
r0.35888671875 (
#145190413
r0.35614013671875 (
#145290421
r0.35308837890625 (
#145390429
r0.35003662109375 (
#145490437
r0.34698486328125 (
#145590445
r0.34393310546875 (
#145690453
r0.34088134765625 (
#145790461
r0.338134765625 (
#145890469
r0.3350830078125 (
#145990477
r0.33203125 (
#146090485
r0.3289794921875 (
#146190493
r0.325927734375 (
#146290501
r0.3228759765625 (
#146390509
r0.32012939453125 (
#146490517
r0.31707763671875 (
#146590525
r0.31402587890625 (
#146690533
r0.31097412109375 (
#146790541
r0.30792236328125 (
#146890549
r0.30487060546875 (
#146990557
r0.3021240234375 (
#147090565
r0.299072265625 (
#147190573
r0.2960205078125 (
#147290581
r0.29296875 (
#147390589
r0.2899169921875 (
#147490597
r0.286865234375 (
#147590605
r0.28411865234375 (
#147690613
r0.28106689453125 (
#147790621
r0.27801513671875 (
#147890629
r0.27496337890625 (
#147990637
r0.27191162109375 (
#148090645
r0.26885986328125 (
#148190653
r0.26611328125 (
#148290661
r0.2630615234375 (
#148390669
r0.260009765625 (
#148490677
r0.2569580078125 (
#148590685
r0.25390625 (
#148690693
r0.2508544921875 (
#148790701
r0.24810791015625 (
#148890709
r0.24505615234375 (
#148990717
r0.24200439453125 (
#149090725
r0.23895263671875 (
#149190733
r0.23590087890625 (
#149290741
r0.23284912109375 (
#149390749
r0.2301025390625 (
#149490757
r0.22705078125 (
#149590765
r0.2239990234375 (
#149690773
r0.220947265625 (
#149790781
r0.2178955078125 (
#149890789
r0.21514892578125 (
#149990797
r0.21209716796875 (
#150090805
r0.20904541015625 (
#150190813
r0.20599365234375 (
#150290821
r0.20294189453125 (
#150390829
r0.19989013671875 (
#150390856
0+!
#180390855
1,!
ssw.off() -!
1.!
ssw.off() /!
02!
03!
#181390854
1,!
sset(110000000.0,amplitude=0.6) -!
1.!
sset(110000000.0,amplitude=0.6) /!
1,!
ssw.on() -!
1.!
ssw.on() /!
17!
#201390853
07!
1,!
ssw.off() -!
1.!
ssw.off() /!
#201390862
r0 (
r0 )
r0 *
r0 +
#221515870
r0.29998779296875 )
r0.40008544921875 *
#221515879
r7.9998779296875 +
1+!
#231515878
12!
13!
#241515877
1,!
sset(110000000.0,amplitude=0.6) -!
1.!
sset(110000000.0,amplitude=0.6) /!
1,!
ssw.on() -!
1.!
ssw.on() /!
14!
#241615876
04!
15!
#341715892
r0.00213623046875 (
#341815900
r0.00396728515625 (
#341915908
r0.006103515625 (
#342015916
r0.0079345703125 (
#342115924
r0.01007080078125 (
#342215932
r0.01190185546875 (
#342315940
r0.0140380859375 (
#342415948
r0.015869140625 (
#342515956
r0.01800537109375 (
#342615964
r0.0201416015625 (
#342715972
r0.02197265625 (
#342815980
r0.02410888671875 (
#342915988
r0.02593994140625 (
#343015996
r0.028076171875 (
#343116004
r0.0299072265625 (
#343216012
r0.03204345703125 (
#343316020
r0.03387451171875 (
#343416028
r0.0360107421875 (
#343516036
r0.03814697265625 (
#343616044
r0.03997802734375 (
#343716052
r0.0421142578125 (
#343816060
r0.0439453125 (
#343916068
r0.04608154296875 (
#344016076
r0.04791259765625 (
#344116084
r0.050048828125 (
#344216092
r0.0518798828125 (
#344316100
r0.05401611328125 (
#344416108
r0.05615234375 (
#344516116
r0.0579833984375 (
#344616124
r0.06011962890625 (
#344716132
r0.06195068359375 (
#344816140
r0.0640869140625 (
#344916148
r0.06591796875 (
#345016156
r0.06805419921875 (
#345116164
r0.06988525390625 (
#345216172
r0.072021484375 (
#345316180
r0.0738525390625 (
#345416188
r0.07598876953125 (
#345516196
r0.078125 (
#345616204
r0.0799560546875 (
#345716212
r0.08209228515625 (
#345816220
r0.08392333984375 (
#345916228
r0.0860595703125 (
#346016236
r0.087890625 (
#346116244
r0.09002685546875 (
#346216252
r0.09185791015625 (
#346316260
r0.093994140625 (
#346416268
r0.09613037109375 (
#346516276
r0.09796142578125 (
#346616284
r0.10009765625 (
#346716292
r0.1019287109375 (
#346816300
r0.10406494140625 (
#346916308
r0.10589599609375 (
#347016316
r0.1080322265625 (
#347116324
r0.10986328125 (
#347216332
r0.11199951171875 (
#347316340
r0.1141357421875 (
#347416348
r0.115966796875 (
#347516356
r0.11810302734375 (
#347616364
r0.11993408203125 (
#347716372
r0.1220703125 (
#347816380
r0.1239013671875 (
#347916388
r0.12603759765625 (
#348016396
r0.12786865234375 (
#348116404
r0.1300048828125 (
#348216412
r0.13214111328125 (
#348316420
r0.13397216796875 (
#348416428
r0.1361083984375 (
#348516436
r0.137939453125 (
#348616444
r0.14007568359375 (
#348716452
r0.14190673828125 (
#348816460
r0.14404296875 (
#348916468
r0.1458740234375 (
#349016476
r0.14801025390625 (
#349116484
r0.150146484375 (
#349216492
r0.1519775390625 (
#349316500
r0.15411376953125 (
#349416508
r0.15594482421875 (
#349516516
r0.1580810546875 (
#349616524
r0.159912109375 (
#349716532
r0.16204833984375 (
#349816540
r0.16387939453125 (
#349916548
r0.166015625 (
#350016556
r0.16815185546875 (
#350116564
r0.16998291015625 (
#350216572
r0.172119140625 (
#350316580
r0.1739501953125 (
#350416588
r0.17608642578125 (
#350516596
r0.17791748046875 (
#350616604
r0.1800537109375 (
#350716612
r0.181884765625 (
#350816620
r0.18402099609375 (
#350916628
r0.18585205078125 (
#351016636
r0.18798828125 (
#351116644
r0.19012451171875 (
#351216652
r0.19195556640625 (
#351316660
r0.194091796875 (
#351416668
r0.1959228515625 (
#351516676
r0.19805908203125 (
#351616684
r0.19989013671875 (
#351616711
0+!
#381616710
1,!
ssw.off() -!
1.!
ssw.off() /!
02!
03!
#382616709
1,!
sset(110000000.0,amplitude=0.6) -!
1.!
sset(110000000.0,amplitude=0.6) /!
1,!
ssw.on() -!
1.!
ssw.on() /!
17!
#402616708
07!
1,!
ssw.off() -!
1.!
ssw.off() /!
#402616717
r0 (
r0 )
r0 *
r0 +
#422741725
r0.40008544921875 (
r0.29998779296875 )
r0.40008544921875 *
#422741734
r7.9998779296875 +
1+!
#432741733
12!
13!
#442741732
1,!
sset(110000000.0,amplitude=0.6) -!
1.!
sset(110000000.0,amplitude=0.6) /!
1,!
ssw.on() -!
1.!
ssw.on() /!
14!
#442841731
04!
15!
#542941747
r0.39794921875 (
#543041755
r0.3961181640625 (
#543141763
r0.39398193359375 (
#543241771
r0.39215087890625 (
#543341779
r0.3900146484375 (
#543441787
r0.38787841796875 (
#543541795
r0.38604736328125 (
#543641803
r0.3839111328125 (
#543741811
r0.382080078125 (
#543841819
r0.37994384765625 (
#543941827
r0.37811279296875 (
#544041835
r0.3759765625 (
#544141843
r0.3741455078125 (
#544241851
r0.37200927734375 (
#544341859
r0.369873046875 (
#544441867
r0.3680419921875 (
#544541875
r0.36590576171875 (
#544641883
r0.36407470703125 (
#544741891
r0.3619384765625 (
#544841899
r0.360107421875 (
#544941907
r0.35797119140625 (
#545041915
r0.35614013671875 (
#545141923
r0.35400390625 (
#545241931
r0.35186767578125 (
#545341939
r0.35003662109375 (
#545441947
r0.347900390625 (
#545541955
r0.3460693359375 (
#545641963
r0.34393310546875 (
#545741971
r0.34210205078125 (
#545841979
r0.3399658203125 (
#545941987
r0.338134765625 (
#546041995
r0.33599853515625 (
#546142003
r0.3338623046875 (
#546242011
r0.33203125 (
#546342019
r0.32989501953125 (
#546442027
r0.32806396484375 (
#546542035
r0.325927734375 (
#546642043
r0.3240966796875 (
#546742051
r0.32196044921875 (
#546842059
r0.32012939453125 (
#546942067
r0.3179931640625 (
#547042075
r0.31585693359375 (
#547142083
r0.31402587890625 (
#547242091
r0.3118896484375 (
#547342099
r0.31005859375 (
#547442107
r0.30792236328125 (
#547542115
r0.30609130859375 (
#547642123
r0.303955078125 (
#547742131
r0.3021240234375 (
#547842139
r0.29998779296875 (
#547942147
r0.2978515625 (
#548042155
r0.2960205078125 (
#548142163
r0.29388427734375 (
#548242171
r0.29205322265625 (
#548342179
r0.2899169921875 (
#548442187
r0.2880859375 (
#548542195
r0.28594970703125 (
#548642203
r0.28411865234375 (
#548742211
r0.281982421875 (
#548842219
r0.2801513671875 (
#548942227
r0.27801513671875 (
#549042235
r0.27587890625 (
#549142243
r0.2740478515625 (
#549242251
r0.27191162109375 (
#549342259
r0.27008056640625 (
#549442267
r0.2679443359375 (
#549542275
r0.26611328125 (
#549642283
r0.26397705078125 (
#549742291
r0.26214599609375 (
#549842299
r0.260009765625 (
#549942307
r0.25787353515625 (
#550042315
r0.25604248046875 (
#550142323
r0.25390625 (
#550242331
r0.2520751953125 (
#550342339
r0.24993896484375 (
#550442347
r0.24810791015625 (
#550542355
r0.2459716796875 (
#550642363
r0.244140625 (
#550742371
r0.24200439453125 (
#550842379
r0.2398681640625 (
#550942387
r0.238037109375 (
#551042395
r0.23590087890625 (
#551142403
r0.23406982421875 (
#551242411
r0.23193359375 (
#551342419
r0.2301025390625 (
#551442427
r0.22796630859375 (
#551542435
r0.22613525390625 (
#551642443
r0.2239990234375 (
#551742451
r0.22186279296875 (
#551842459
r0.22003173828125 (
#551942467
r0.2178955078125 (
#552042475
r0.216064453125 (
#552142483
r0.21392822265625 (
#552242491
r0.21209716796875 (
#552342499
r0.2099609375 (
#552442507
r0.2081298828125 (
#552542515
r0.20599365234375 (
#552642523
r0.203857421875 (
#552742531
r0.2020263671875 (
#552842539
r0.19989013671875 (
#552842566
0+!
#582842565
1,!
ssw.off() -!
1.!
ssw.off() /!
02!
03!
#583842564
1,!
sset(110000000.0,amplitude=0.6) -!
1.!
sset(110000000.0,amplitude=0.6) /!
1,!
ssw.on() -!
1.!
ssw.on() /!
17!
#603842563
07!
1,!
ssw.off() -!
1.!
ssw.off() /!
#603842572
r0 (
r0 )
r0 *
r0 +
#623967580
r0.7000732421875 (
r0.29998779296875 )
r0.40008544921875 *
#623967589
r7.9998779296875 +
1+!
#633967588
12!
13!
#643967587
1,!
sset(110000000.0,amplitude=0.6) -!
1.!
sset(110000000.0,amplitude=0.6) /!
1,!
ssw.on() -!
1.!
ssw.on() /!
14!
#644067586
04!
15!
#744167602
r0.69488525390625 (
#744267610
r0.69000244140625 (
#744367618
r0.68511962890625 (
#744467626
r0.679931640625 (
#744567634
r0.675048828125 (
#744667642
r0.66986083984375 (
#744767650
r0.66497802734375 (
#744867658
r0.66009521484375 (
#744967666
r0.6549072265625 (
#745067674
r0.6500244140625 (
#745167682
r0.6451416015625 (
#745267690
r0.63995361328125 (
#745367698
r0.63507080078125 (
#745467706
r0.6298828125 (
#745567714
r0.625 (
#745667722
r0.6201171875 (
#745767730
r0.61492919921875 (
#745867738
r0.61004638671875 (
#745967746
r0.6048583984375 (
#746067754
r0.5999755859375 (
#746167762
r0.5950927734375 (
#746267770
r0.58990478515625 (
#746367778
r0.58502197265625 (
#746467786
r0.58013916015625 (
#746567794
r0.574951171875 (
#746667802
r0.570068359375 (
#746767810
r0.56488037109375 (
#746867818
r0.55999755859375 (
#746967826
r0.55511474609375 (
#747067834
r0.5499267578125 (
#747167842
r0.5450439453125 (
#747267850
r0.53985595703125 (
#747367858
r0.53497314453125 (
#747467866
r0.53009033203125 (
#747567874
r0.52490234375 (
#747667882
r0.52001953125 (
#747767890
r0.51513671875 (
#747867898
r0.50994873046875 (
#747967906
r0.50506591796875 (
#748067914
r0.4998779296875 (
#748167922
r0.4949951171875 (
#748267930
r0.4901123046875 (
#748367938
r0.48492431640625 (
#748467946
r0.48004150390625 (
#748567954
r0.474853515625 (
#748667962
r0.469970703125 (
#748767970
r0.465087890625 (
#748867978
r0.45989990234375 (
#748967986
r0.45501708984375 (
#749067994
r0.45013427734375 (
#749168002
r0.4449462890625 (
#749268010
r0.4400634765625 (
#749368018
r0.43487548828125 (
#749468026
r0.42999267578125 (
#749568034
r0.42510986328125 (
#749668042
r0.419921875 (
#749768050
r0.4150390625 (
#749868058
r0.40985107421875 (
#749968066
r0.40496826171875 (
#750068074
r0.40008544921875 (
#750168082
r0.3948974609375 (
#750268090
r0.3900146484375 (
#750368098
r0.3851318359375 (
#750468106
r0.37994384765625 (
#750568114
r0.37506103515625 (
#750668122
r0.369873046875 (
#750768130
r0.364990234375 (
#750868138
r0.360107421875 (
#750968146
r0.35491943359375 (
#751068154
r0.35003662109375 (
#751168162
r0.3448486328125 (
#751268170
r0.3399658203125 (
#751368178
r0.3350830078125 (
#751468186
r0.32989501953125 (
#751568194
r0.32501220703125 (
#751668202
r0.32012939453125 (
#751768210
r0.31494140625 (
#751868218
r0.31005859375 (
#751968226
r0.30487060546875 (
#752068234
r0.29998779296875 (
#752168242
r0.29510498046875 (
#752268250
r0.2899169921875 (
#752368258
r0.2850341796875 (
#752468266
r0.2801513671875 (
#752568274
r0.27496337890625 (
#752668282
r0.27008056640625 (
#752768290
r0.264892578125 (
#752868298
r0.260009765625 (
#752968306
r0.255126953125 (
#753068314
r0.24993896484375 (
#753168322
r0.24505615234375 (
#753268330
r0.2398681640625 (
#753368338
r0.2349853515625 (
#753468346
r0.2301025390625 (
#753568354
r0.22491455078125 (
#753668362
r0.22003173828125 (
#753768370
r0.21514892578125 (
#753868378
r0.2099609375 (
#753968386
r0.205078125 (
#754068394
r0.19989013671875 (
#754068421
0+!
#784068420
1,!
ssw.off() -!
1.!
ssw.off() /!
02!
03!
#785068419
1,!
sset(110000000.0,amplitude=0.6) -!
1.!
sset(110000000.0,amplitude=0.6) /!
1,!
ssw.on() -!
1.!
ssw.on() /!
17!
#805068418
07!
1,!
ssw.off() -!
1.!
ssw.off() /!
#805068427
r0 (
r0 )
r0 *
r0 +
#825193435
r0.79986572265625 (
r0.29998779296875 )
r0.40008544921875 *
#825193444
r7.9998779296875 +
1+!
#835193443
12!
13!
#845193442
1,!
sset(110000000.0,amplitude=0.6) -!
1.!
sset(110000000.0,amplitude=0.6) /!
1,!
ssw.on() -!
1.!
ssw.on() /!
14!
#845293441
04!
15!
#945393457
r0.7940673828125 (
#945493465
r0.7879638671875 (
#945593473
r0.7818603515625 (
#945693481
r0.77606201171875 (
#945793489
r0.76995849609375 (
#945893497
r0.76385498046875 (
#945993505
r0.758056640625 (
#946093513
r0.751953125 (
#946193521
r0.745849609375 (
#946293529
r0.74005126953125 (
#946393537
r0.73394775390625 (
#946493545
r0.7281494140625 (
#946593553
r0.7220458984375 (
#946693561
r0.7159423828125 (
#946793569
r0.71014404296875 (
#946893577
r0.70404052734375 (
#946993585
r0.69793701171875 (
#947093593
r0.692138671875 (
#947193601
r0.68603515625 (
#947293609
r0.679931640625 (
#947393617
r0.67413330078125 (
#947493625
r0.66802978515625 (
#947593633
r0.66192626953125 (
#947693641
r0.6561279296875 (
#947793649
r0.6500244140625 (
#947893657
r0.6439208984375 (
#947993665
r0.63812255859375 (
#948093673
r0.63201904296875 (
#948193681
r0.62591552734375 (
#948293689
r0.6201171875 (
#948393697
r0.614013671875 (
#948493705
r0.60791015625 (
#948593713
r0.60211181640625 (
#948693721
r0.59600830078125 (
#948793729
r0.58990478515625 (
#948893737
r0.5841064453125 (
#948993745
r0.5780029296875 (
#949093753
r0.5718994140625 (
#949193761
r0.56610107421875 (
#949293769
r0.55999755859375 (
#949393777
r0.55389404296875 (
#949493785
r0.548095703125 (
#949593793
r0.5419921875 (
#949693801
r0.535888671875 (
#949793809
r0.53009033203125 (
#949893817
r0.52398681640625 (
#949993825
r0.51788330078125 (
#950093833
r0.5120849609375 (
#950193841
r0.5059814453125 (
#950293849
r0.4998779296875 (
#950393857
r0.49407958984375 (
#950493865
r0.48797607421875 (
#950593873
r0.48187255859375 (
#950693881
r0.47607421875 (
#950793889
r0.469970703125 (
#950893897
r0.4638671875 (
#950993905
r0.45806884765625 (
#951093913
r0.45196533203125 (
#951193921
r0.44586181640625 (
#951293929
r0.4400634765625 (
#951393937
r0.4339599609375 (
#951493945
r0.4278564453125 (
#951593953
r0.42205810546875 (
#951693961
r0.41595458984375 (
#951793969
r0.40985107421875 (
#951893977
r0.404052734375 (
#951993985
r0.39794921875 (
#952093993
r0.39215087890625 (
#952194001
r0.38604736328125 (
#952294009
r0.37994384765625 (
#952394017
r0.3741455078125 (
#952494025
r0.3680419921875 (
#952594033
r0.3619384765625 (
#952694041
r0.35614013671875 (
#952794049
r0.35003662109375 (
#952894057
r0.34393310546875 (
#952994065
r0.338134765625 (
#953094073
r0.33203125 (
#953194081
r0.325927734375 (
#953294089
r0.32012939453125 (
#953394097
r0.31402587890625 (
#953494105
r0.30792236328125 (
#953594113
r0.3021240234375 (
#953694121
r0.2960205078125 (
#953794129
r0.2899169921875 (
#953894137
r0.28411865234375 (
#953994145
r0.27801513671875 (
#954094153
r0.27191162109375 (
#954194161
r0.26611328125 (
#954294169
r0.260009765625 (
#954394177
r0.25390625 (
#954494185
r0.24810791015625 (
#954594193
r0.24200439453125 (
#954694201
r0.23590087890625 (
#954794209
r0.2301025390625 (
#954894217
r0.2239990234375 (
#954994225
r0.2178955078125 (
#955094233
r0.21209716796875 (
#955194241
r0.20599365234375 (
#955294249
r0.19989013671875 (
#955294276
0+!
#985294275
1,!
ssw.off() -!
1.!
ssw.off() /!
02!
03!
#986294274
1,!
sset(110000000.0,amplitude=0.6) -!
1.!
sset(110000000.0,amplitude=0.6) /!
1,!
ssw.on() -!
1.!
ssw.on() /!
17!
#1006294273
07!
1,!
ssw.off() -!
1.!
ssw.off() /!
#1006294282
r0 (
r0 )
r0 *
r0 +
#1026419290
r0.5999755859375 (
r0.29998779296875 )
r0.40008544921875 *
#1026419299
r7.9998779296875 +
1+!
#1036419298
12!
13!
#1046419297
1,!
sset(110000000.0,amplitude=0.6) -!
1.!
sset(110000000.0,amplitude=0.6) /!
1,!
ssw.on() -!
1.!
ssw.on() /!
14!
#1046519296
04!
15!
#1146619312
r0.59600830078125 (
#1146719320
r0.592041015625 (
#1146819328
r0.58807373046875 (
#1146919336
r0.5841064453125 (
#1147019344
r0.58013916015625 (
#1147119352
r0.57586669921875 (
#1147219360
r0.5718994140625 (
#1147319368
r0.56793212890625 (
#1147419376
r0.56396484375 (
#1147519384
r0.55999755859375 (
#1147619392
r0.5560302734375 (
#1147719400
r0.55206298828125 (
#1147819408
r0.548095703125 (
#1147919416
r0.54412841796875 (
#1148019424
r0.53985595703125 (
#1148119432
r0.535888671875 (
#1148219440
r0.53192138671875 (
#1148319448
r0.5279541015625 (
#1148419456
r0.52398681640625 (
#1148519464
r0.52001953125 (
#1148619472
r0.51605224609375 (
#1148719480
r0.5120849609375 (
#1148819488
r0.50811767578125 (
#1148919496
r0.504150390625 (
#1149019504
r0.4998779296875 (
#1149119512
r0.49591064453125 (
#1149219520
r0.491943359375 (
#1149319528
r0.48797607421875 (
#1149419536
r0.4840087890625 (
#1149519544
r0.48004150390625 (
#1149619552
r0.47607421875 (
#1149719560
r0.47210693359375 (
#1149819568
r0.4681396484375 (
#1149919576
r0.4638671875 (
#1150019584
r0.45989990234375 (
#1150119592
r0.4559326171875 (
#1150219600
r0.45196533203125 (
#1150319608
r0.447998046875 (
#1150419616
r0.44403076171875 (
#1150519624
r0.4400634765625 (
#1150619632
r0.43609619140625 (
#1150719640
r0.43212890625 (
#1150819648
r0.4278564453125 (
#1150919656
r0.42388916015625 (
#1151019664
r0.419921875 (
#1151119672
r0.41595458984375 (
