test_coreanalyzer.vcd
$timescale 1000ps $end
$var wire 1 ! ttl/led0 $end
$var wire 1 " ttl/led1 $end
$var wire 1 # ttl/led2 $end
$var wire 1 $ ttl/led3 $end
$var wire 1 % ttl/led4 $end
$var wire 1 & ttl/led5 $end
$var wire 1 ' ttl/led6 $end
$var wire 1 ( ttl/led7 $end
$scope module spi2/spi_sampler0_adc $end
$var wire 1 ) spi_sampler0_adc/stb $end
$var wire 8 * spi_sampler0_adc/flags $end
$var wire 5 + spi_sampler0_adc/length $end
$var wire 8 , spi_sampler0_adc/div $end
$var wire 8 - spi_sampler0_adc/chip_select $end
$var wire 32 . spi_sampler0_adc/write $end
$var wire 32 / spi_sampler0_adc/read $end
$upscope $end
$scope module spi2/spi_sampler0_pgia $end
$var wire 1 0 spi_sampler0_pgia/stb $end
$var wire 8 1 spi_sampler0_pgia/flags $end
$var wire 5 2 spi_sampler0_pgia/length $end
$var wire 8 3 spi_sampler0_pgia/div $end
$var wire 8 4 spi_sampler0_pgia/chip_select $end
$var wire 32 5 spi_sampler0_pgia/write $end
$var wire 32 6 spi_sampler0_pgia/read $end
$upscope $end
$scope module spi2/spi_sampler1_pgia $end
$var wire 1 7 spi_sampler1_pgia/stb $end
$var wire 8 8 spi_sampler1_pgia/flags $end
$var wire 5 9 spi_sampler1_pgia/length $end
$var wire 8 : spi_sampler1_pgia/div $end
$var wire 8 ; spi_sampler1_pgia/chip_select $end
$var wire 32 < spi_sampler1_pgia/write $end
$var wire 32 = spi_sampler1_pgia/read $end
$upscope $end
$scope module spi2/spi_sampler2_adc $end
$var wire 1 > spi_sampler2_adc/stb $end
$var wire 8 ? spi_sampler2_adc/flags $end
$var wire 5 @ spi_sampler2_adc/length $end
$var wire 8 A spi_sampler2_adc/div $end
$var wire 8 B spi_sampler2_adc/chip_select $end
$var wire 32 C spi_sampler2_adc/write $end
$var wire 32 D spi_sampler2_adc/read $end
$upscope $end
$scope module spi2/spi_sampler2_pgia $end
$var wire 1 E spi_sampler2_pgia/stb $end
$var wire 8 F spi_sampler2_pgia/flags $end
$var wire 5 G spi_sampler2_pgia/length $end
$var wire 8 H spi_sampler2_pgia/div $end
$var wire 8 I spi_sampler2_pgia/chip_select $end
$var wire 32 J spi_sampler2_pgia/write $end
$var wire 32 K spi_sampler2_pgia/read $end
$upscope $end
$scope module spi2/spi_urukul0 $end
$var wire 1 L spi_urukul0/stb $end
$var wire 8 M spi_urukul0/flags $end
$var wire 5 N spi_urukul0/length $end
$var wire 8 O spi_urukul0/div $end
$var wire 8 P spi_urukul0/chip_select $end
$var wire 32 Q spi_urukul0/write $end
$var wire 32 R spi_urukul0/read $end
$upscope $end
$scope module spi2/spi_urukul1 $end
$var wire 1 S spi_urukul1/stb $end
$var wire 8 T spi_urukul1/flags $end
$var wire 5 U spi_urukul1/length $end
$var wire 8 V spi_urukul1/div $end
$var wire 8 W spi_urukul1/chip_select $end
$var wire 32 X spi_urukul1/write $end
$var wire 32 Y spi_urukul1/read $end
$upscope $end
$scope module spi2/spi_urukul2 $end
$var wire 1 Z spi_urukul2/stb $end
$var wire 8 [ spi_urukul2/flags $end
$var wire 5 \ spi_urukul2/length $end
$var wire 8 ] spi_urukul2/div $end
$var wire 8 ^ spi_urukul2/chip_select $end
$var wire 32 _ spi_urukul2/write $end
$var wire 32 ` spi_urukul2/read $end
$upscope $end
$scope module spi2/spi_urukul3 $end
$var wire 1 a spi_urukul3/stb $end
$var wire 8 b spi_urukul3/flags $end
$var wire 5 c spi_urukul3/length $end
$var wire 8 d spi_urukul3/div $end
$var wire 8 e spi_urukul3/chip_select $end
$var wire 32 f spi_urukul3/write $end
$var wire 32 g spi_urukul3/read $end
$upscope $end
$scope module spi2/spi_urukul4 $end
$var wire 1 h spi_urukul4/stb $end
$var wire 8 i spi_urukul4/flags $end
$var wire 5 j spi_urukul4/length $end
$var wire 8 k spi_urukul4/div $end
$var wire 8 l spi_urukul4/chip_select $end
$var wire 32 m spi_urukul4/write $end
$var wire 32 n spi_urukul4/read $end
$upscope $end
$scope module spi2/spi_urukul5 $end
$var wire 1 o spi_urukul5/stb $end
$var wire 8 p spi_urukul5/flags $end
$var wire 5 q spi_urukul5/length $end
$var wire 8 r spi_urukul5/div $end
$var wire 8 s spi_urukul5/chip_select $end
$var wire 32 t spi_urukul5/write $end
$var wire 32 u spi_urukul5/read $end
$upscope $end
$scope module spi2/spi_urukul6 $end
$var wire 1 v spi_urukul6/stb $end
$var wire 8 w spi_urukul6/flags $end
$var wire 5 x spi_urukul6/length $end
$var wire 8 y spi_urukul6/div $end
$var wire 8 z spi_urukul6/chip_select $end
$var wire 32 { spi_urukul6/write $end
$var wire 32 | spi_urukul6/read $end
$upscope $end
$scope module spi2/spi_zotino0 $end
$var wire 1 } spi_zotino0/stb $end
$var wire 8 ~ spi_zotino0/flags $end
$var wire 5 "! spi_zotino0/length $end
$var wire 8 "" spi_zotino0/div $end
$var wire 8 "# spi_zotino0/chip_select $end
$var wire 32 "$ spi_zotino0/write $end
$var wire 32 "% spi_zotino0/read $end
$upscope $end
$var wire 1 "& ttl/ttl0 $end
$var wire 1 "' ttl/ttl1 $end
$var wire 1 "( ttl/ttl10 $end
$var wire 1 ") ttl/ttl11 $end
$var wire 1 "* ttl/ttl12 $end
$var wire 1 "+ ttl/ttl13 $end
$var wire 1 ", ttl/ttl14 $end
$var wire 1 "- ttl/ttl15 $end
$var wire 1 ". ttl/ttl16 $end
$var wire 1 "/ ttl/ttl17 $end
$var wire 1 "0 ttl/ttl18 $end
$var wire 1 "1 ttl/ttl19 $end
$var wire 1 "2 ttl/ttl2 $end
$var wire 1 "3 ttl/ttl20 $end
$var wire 1 "4 ttl/ttl21 $end
$var wire 1 "5 ttl/ttl22 $end
$var wire 1 "6 ttl/ttl23 $end
$var wire 1 "7 ttl/ttl24 $end
$var wire 1 "8 ttl/ttl25 $end
$var wire 1 "9 ttl/ttl26 $end
$var wire 1 ": ttl/ttl27 $end
$var wire 1 "; ttl/ttl28 $end
$var wire 1 "< ttl/ttl29 $end
$var wire 1 "= ttl/ttl3 $end
$var wire 1 "> ttl/ttl30 $end
$var wire 1 "? ttl/ttl31 $end
$var wire 1 "@ ttl/ttl32 $end
$var wire 1 "A ttl/ttl33 $end
$var wire 1 "B ttl/ttl34 $end
$var wire 1 "C ttl/ttl35 $end
$var wire 1 "D ttl/ttl36 $end
$var wire 1 "E ttl/ttl37 $end
$var wire 1 "F ttl/ttl38 $end
$var wire 1 "G ttl/ttl39 $end
$var wire 1 "H ttl/ttl4 $end
$var wire 1 "I ttl/ttl40 $end
$var wire 1 "J ttl/ttl41 $end
$var wire 1 "K ttl/ttl42 $end
$var wire 1 "L ttl/ttl43 $end
$var wire 1 "M ttl/ttl44 $end
$var wire 1 "N ttl/ttl45 $end
$var wire 1 "O ttl/ttl46 $end
$var wire 1 "P ttl/ttl47 $end
$var wire 1 "Q ttl/ttl5 $end
$var wire 1 "R ttl/ttl6 $end
$var wire 1 "S ttl/ttl7 $end
$var wire 1 "T ttl/ttl8 $end
$var wire 1 "U ttl/ttl9 $end
$var wire 1 "V ttl/ttl_sampler0_cnv $end
$var wire 1 "W ttl/ttl_sampler2_cnv $end
$var wire 1 "X ttl/ttl_urukul0_io_update $end
$var wire 1 "Y ttl/ttl_urukul0_sw0 $end
$var wire 1 "Z ttl/ttl_urukul0_sw1 $end
$var wire 1 "[ ttl/ttl_urukul0_sw2 $end
$var wire 1 "\ ttl/ttl_urukul0_sw3 $end
$var wire 64 "] ttl_clkgen/ttl_urukul0_sync $end
$var wire 1 "^ ttl/ttl_urukul1_io_update $end
$var wire 1 "_ ttl/ttl_urukul1_sw0 $end
$var wire 1 "` ttl/ttl_urukul1_sw1 $end
$var wire 1 "a ttl/ttl_urukul1_sw2 $end
$var wire 1 "b ttl/ttl_urukul1_sw3 $end
$var wire 64 "c ttl_clkgen/ttl_urukul1_sync $end
$var wire 1 "d ttl/ttl_urukul4_io_update $end
$var wire 1 "e ttl/ttl_urukul4_sw0 $end
$var wire 1 "f ttl/ttl_urukul4_sw1 $end
$var wire 1 "g ttl/ttl_urukul4_sw2 $end
$var wire 1 "h ttl/ttl_urukul4_sw3 $end
$var wire 64 "i ttl_clkgen/ttl_urukul4_sync $end
$var wire 1 "j ttl/ttl_urukul5_io_update $end
$var wire 1 "k ttl/ttl_urukul5_sw0 $end
$var wire 1 "l ttl/ttl_urukul5_sw1 $end
$var wire 1 "m ttl/ttl_urukul5_sw2 $end
$var wire 1 "n ttl/ttl_urukul5_sw3 $end
$var wire 64 "o ttl_clkgen/ttl_urukul5_sync $end
$var wire 1 "p ttl/ttl_urukul6_io_update $end
$var wire 1 "q ttl/ttl_urukul6_sw0 $end
$var wire 1 "r ttl/ttl_urukul6_sw1 $end
$var wire 1 "s ttl/ttl_urukul6_sw2 $end
$var wire 1 "t ttl/ttl_urukul6_sw3 $end
$var wire 64 "u ttl_clkgen/ttl_urukul6_sync $end
$var wire 1 "v ttl/ttl_zotino0_clr $end
$var wire 1 "w ttl/ttl_zotino0_ldac $end
$var wire 64 "x rtio_slack $end
$enddefinitions $end
#0
#-5527776742008
1L
0L
1S
0S
1L
0L
1L
0L
1L
0L
1L
0L
1L
0L
1L
0L
1L
0L
1L
0L
1L
0L
1L
0L
1L
0L
1L
0L
1L
0L
1L
0L
1L
0L
1L
0L
1L
0L
1L
0L
1L
0L
1L
0L
1L
0L
1L
0L
1L
0L
1L
0L
1L
0L
1L
0L
1L
0L
1L
0L
1L
0L
1L
0L
1L
0L
1L
0L
1L
0L
1L
0L
1L
0L
1L
0L
1L
0L
1L
0L
1L
0L
1L
0L
1L
0L
1L
0L
1L
0L
1L
0L
1L
0L
1L
0L
1S
0S
1S
0S
1S
0S
1S
0S
1S
0S
1S
0S
1S
0S
1S
0S
1S
0S
1S
0S
1S
0S
1S
0S
1S
0S
1S
0S
1S
0S
1S
0S
1S
0S
1S
0S
1S
0S
1S
0S
1S
0S
1S
0S
1S
0S
1S
0S
1S
0S
1S
0S
1S
0S
1S
0S
1S
0S
1S
0S
1S
0S
1S
0S
1S
0S
1S
0S
1S
0S
1S
0S
1S
0S
1S
0S
1S
0S
1S
0S
1S
0S
1S
0S
1S
0S
1S
0S
1S
0S
1S
0S
1S
0S
1S
0S
1S
0S
1S
0S
1S
0S
1S
0S
1S
0S
1S
0S
1S
0S
1S
0S
1S
0S
1S
0S
1S
0S
1S
0S
1S
0S
1}
0}
1}
0}
1h
0h
1o
0o
1v
0v
1h
0h
1h
0h
1h
0h
1h
0h
1h
0h
1h
0h
1h
0h
1h
0h
1h
0h
1h
0h
1h
0h
1h
0h
1h
0h
1h
0h
1h
0h
1h
0h
1h
0h
1h
0h
1h
0h
1h
0h
1h
0h
1h
0h
1h
0h
1h
0h
1h
0h
1h
0h
1h
0h
1h
0h
1h
0h
1h
0h
1h
0h
1h
0h
1h
0h
1h
0h
1h
0h
1h
0h
1h
0h
1h
0h
1h
0h
1h
0h
1h
0h
1h
0h
1h
0h
1h
0h
1h
0h
1h
0h
1h
0h
1o
0o
1o
0o
1o
0o
1o
0o
1o
0o
1o
0o
1o
0o
1o
0o
1o
0o
1o
0o
1o
0o
1o
0o
1o
0o
1o
0o
1o
0o
1o
0o
1o
0o
1o
0o
1o
0o
1o
0o
1o
0o
1o
0o
1o
0o
1o
0o
1o
0o
1o
0o
1o
0o
1o
0o
1o
0o
1o
0o
1o
0o
1o
0o
1o
0o
1o
0o
1o
0o
1o
0o
1o
0o
1o
0o
1o
0o
1o
0o
1o
0o
1o
0o
1o
0o
1o
0o
1o
0o
1o
0o
1o
0o
1o
0o
1v
0v
1v
0v
1v
0v
1v
0v
1v
0v
1v
0v
1v
0v
1v
0v
1v
0v
1v
0v
1v
0v
1v
0v
1v
0v
1v
0v
1v
0v
1v
0v
1v
0v
1v
0v
1v
0v
1v
0v
1v
0v
1v
0v
1v
0v
1v
0v
1v
0v
1v
0v
1v
0v
1v
0v
1v
0v
1v
0v
1v
0v
1v
0v
1v
0v
1v
0v
1v
0v
1v
0v
1v
0v
1v
0v
1v
0v
1v
0v
1v
0v
1v
0v
1v
0v
1v
0v
1v
0v
1v
0v
1v
0v
1v
0v
#0
1L
0L
b00000001 P
b00000000 O
b00010111 N
b00001000 M
b0011111100100000001101100100011111010100011011101100011001110110 "x
#1008
1L
0L
b00000001 P
b00000000 O
b00010111 N
b00001000 M
b0011111100100000001000010101011110110101111010111101011100100001 "x
#1016
1L
0L
b01111001100000000000000000000000 Q
b0011111100100000000010100100000111010101111010111110001011110000 "x
#1424
1L
0L
b00000001 P
b00001110 O
b00011011 N
b00001110 M
b0011111100011111111110110100100000001010010110101100110011010110 "x
#1432
1L
0L
b00000000111111111111000000000000 Q
b0011111100011111110000101110100011110011010010010000110101100110 "x
#105152
1L
0L
b00000001 P
b00000000 O
b00010111 N
b00001000 M
b00000000000010010100111100000000 R
b0011111100011010000000111110001000110111110000110000111111100000 "x
#105160
1L
0L
b01111001000000000000000000000000 Q
b0011111100011001110101011011011001110111110000110010011101111111 "x
#105568
1L
0L
b00000001 P
b00000000 O
b00011011 N
b00001010 M
b0011111100011001101111110010101000001000001000100111010010000110 "x
#105576
1L
0L
b00000000111111111111000000000000 Q
b0011111100011001100100001111111001001000001000101000110000100101 "x
#106040
b0100000001111101110011010110010011111111111111111111111111111111 "]
b0011111100011001010011001100111110001000111000010011001000000001 "x
#1106040
1S
0S
b00000001 W
b00000000 V
b00010111 U
b00001000 T
b0011111101010001111100111000110001000011000010001010110100010010 "x
#1107048
1S
0S
b00000001 W
b00000000 V
b00010111 U
b00001000 T
b0011111101010001111100110000001011010010101010010110101111011011 "x
#1107056
1S
0S
b01111001100000000000000000000000 X
b0011111101010001111100000010000000010110101010010110110101010101 "x
#1107464
1S
0S
b00000001 W
b00001110 V
b00011011 U
b00001110 T
b0011111101010001111011101001110110001010100111011000010111101011 "x
#1107472
1S
0S
b00000000111111111111000000000000 X
b0011111101010001111010111011101011001110100111011000011101100101 "x
#1211192
1S
0S
b00000001 W
b00000000 V
b00010111 U
b00001000 T
b00000000000010010100111100000000 Y
b0011111100011010000001101001000101101001100111110101010111110010 "x
#1211200
1S
0S
b01111001000000000000000000000000 X
b0011111100011001110101001010001110010111000001001010010100010010 "x
#1211608
1S
0S
b00000001 W
b00000000 V
b00011011 U
b00001010 T
b0011111100011001110000011101100100111001111111101011101010010111 "x
#1211616
1S
0S
b00000000111111111111000000000000 X
b0011111100011001100100001111111001001000001000101000110000100101 "x
#1212088
b0100000001111101110011010110010011111111111111111111111111111111 "c
b0011111100011001011000111110010101101000111000010010011000110010 "x
#2212088
1h
0h
b00000001 l
b00000000 k
b00010111 j
b00001000 i
b0011111101010001111101001001111100100011110001110010111101111111 "x
#2213096
1h
0h
b00000001 l
b00000000 k
b00010111 j
b00001000 i
b0011111101010001111100010110011010000001100010111010100000110111 "x
#2213104
1h
0h
b01111001100000000000000000000000 m
b0011111101010001111011101000110001011100100100011001110111000100 "x
#2213512
1h
0h
b00000001 l
b00001110 k
b00011011 j
b00001110 i
b0011111101010001111011010001001001100111100010111010101001101110 "x
#2213520
1h
0h
b00000000111111111111000000000000 m
b0011111101010001111010100010011100010100100001011011011111010101 "x
#2317240
1h
0h
b00000001 l
b00000000 k
b00010111 j
b00001000 i
b00000000100010010100111100000000 n
b0011111100011001110101110101001011001000111000001110101100100011 "x
#2317248
1h
0h
b01111001000000000000000000000000 m
b0011111100011001101010010010011100001000111000010000001011000011 "x
#2317656
1h
0h
b00000001 l
b00000000 k
b00011011 j
b00001010 i
b0011111100011001100101100101110010101011110110110001100001001000 "x
#2317664
1h
0h
b00000000111111111111000000000000 m
b0011111100011001011001000110111011011001010000000110011101101000 "x
#2318136
b0100000001111101110011010110010011111111111111111111111111111111 "i
b0011111100011001001110010111101110111011011111000000011001010000 "x
#3318136
1o
0o
b00000001 s
b00000000 r
b00010111 q
b00001000 p
b0011111101010001111100100011010010101010000110101000101000001001 "x
#3319144
1o
0o
b00000001 s
b00000000 r
b00010111 q
b00001000 p
b0011111101010001111100011110011101011010111001001111010101011010 "x
#3319152
1o
0o
b01111001100000000000000000000000 t
b0011111101010001111011110000110100110101111010101110101011101000 "x
#3319560
1o
0o
b00000001 s
b00001110 r
b00011011 q
b00001110 p
b0011111101010001111011011110000010010000000110101000110001000000 "x
#3319568
1o
0o
b00000000111111111111000000000000 t
b0011111101010001111010101011000010000100111001001111100100001011 "x
#3423288
1o
0o
b00000001 s
b00000000 r
b00010111 q
b00001000 p
b00000000000010010100111100000000 u
b0011111100011001110101010010110100000111011000111110011001001001 "x
#3423296
1o
0o
b01111001000000000000000000000000 t
b0011111100011001101001111000101010110111110000110011111100011111 "x
#3423704
1o
0o
b00000001 s
b00000000 r
b00011011 q
b00001010 p
b0011111100011001100011100100111100010110010001100100011000010100 "x
#3423712
1o
0o
b00000000111111111111000000000000 t
b0011111100011001011000000010001101010110010001100101110110110011 "x
#3424184
b0100000001111101110011010110010011111111111111111111111111111111 "o
b0011111100011001001100011111011110010110010001100111010101010010 "x
#4424184
1v
0v
b00000001 z
b00000000 y
b00010111 x
b00001000 w
b0011111101010001111100011100110110010101110100110001100100100000 "x
#4425192
1v
0v
b00000001 z
b00000000 y
b00010111 x
b00001000 w
b0011111101010001111100010010000111001001010111000000011110011100 "x
#4425200
1v
0v
b01111001100000000000000000000000 {
b0011111101010001111011100011111100001101010111000000100100010110 "x
#4425608
1v
0v
b00000001 z
b00001110 y
b00011011 x
b00001110 w
b0011111101010001111011010001001001100111100010111010101001101110 "x
#4425616
1v
0v
b00000000111111111111000000000000 {
b0011111101010001111010100011100001000010100100011001111111111011 "x
#4529336
1v
0v
b00000001 z
b00000000 y
b00010111 x
b00001000 w
b00000000000010010100111100000000 |
b0011111100011001110101010010110100000111011000111110011001001001 "x
#4529344
1v
0v
b01111001000000000000000000000000 {
b0011111100011001101001111000101010110111110000110011111100011111 "x
#4529752
1v
0v
b00000001 z
b00000000 y
b00011011 x
b00001010 w
b0011111100011001100100110010010000001001100111111001000100000000 "x
#4529760
1v
0v
b00000000111111111111000000000000 {
b0011111100011001011001001111100001001001100111111010100010011111 "x
#4530232
b0100000001111101110011010110010011111111111111111111111111111111 "u
b0011111100011001001101100100001100011001010000000111111100001000 "x
#55530232
1L
0L
b00000100 P
b00000000 O
b00000111 N
b00001000 M
b0011111110000101000101111101110101001001111110110010100101100000 "x
#55530240
1L
0L
b00000000000000000000000000000000 Q
b0011111110000101000101110111111011001100101110011010110010001010 "x
#55530392
1L
0L
b00000100 P
b00000000 O
b00011111 N
b00001010 M
b0011111110000101000101110011011011011011111001111101000001100111 "x
#55530400
1L
0L
b00000000000000000000000000000010 Q
b0011111110000101000101101101101010000100011001111101000010010111 "x
#55530936
1"X
b0011111110000101000101101011100100111011001100001011111011001011 "x
#56530936
0"X
b0011111110000111001000011111101111100100011110001010000100111000 "x
#57530936
1L
0L
b00000100 P
b00000000 O
b00000111 N
b00001000 M
b0011111110001001001011011110100000110100011101100001100000100100 "x
#57530944
1L
0L
b10000011000000000000000000000000 Q
b0011111110001001001011011000101111011100111101100001100001010100 "x
#57531096
1L
0L
b00000100 P
b00001110 O
b00011111 N
b00001110 M
b0011111110001001001011010100001011011001010000110111110110101111 "x
#57531104
1L
0L
b00000000000000000000000000000000 Q
b0011111110001001001011001110011010000001110000110111110111011110 "x
#57585336
1L
0L
b00000100 P
b00000000 O
b00000111 N
b00001000 M
b00000000000000000111111101111111 R
b0011111100001001110100011111010001100101001010000101111100000000 "x
#57585344
1L
0L
b00000001000000000000000000000000 Q
b0011111100001001011101011001110011100101001010001000111000111111 "x
#57585496
1L
0L
b00000100 P
b00000000 O
b00011111 N
b00001010 M
b0011111100001001001100001110010010110101100001111111001011100101 "x
#57585504
1L
0L
b00000001000000010000000000100000 Q
b0011111100001000110101101011001011110111000001010010011011111110 "x
#57586040
1"X
b0011111100001000101010001000011100110111000001010011111010011101 "x
#58586040
0"X
b0011111101010001001001000100100000111100011000100110010010000010 "x
1L
0L
b00000100 P
b00000000 O
b00000111 N
b00001000 M
b0011111101010001001000101111000010100011011101000100000101111001 "x
#58586048
1L
0L
b00000010000000000000000000000000 Q
b0011111101010001001000000001111100010101100000000010101100011010 "x
#58586200
1L
0L
b00000100 P
b00000000 O
b00011111 N
b00001010 M
b0011111101010001000111011111100101010100000000110010011000111111 "x
#58586208
1L
0L
b00001101001111111100010101000000 Q
b0011111101010001000110110000010101101001111101110011111110010010 "x
#58586744
1"X
b0011111101010001000110100001110101111100010101101000000110000110 "x
#58587744
0"X
b0011111101010001000110110000010101101001111101110011111110010010 "x
1L
0L
b00000100 P
b00000000 O
b00000111 N
b00001000 M
b0011111101010001000110011011111011111111000101010000010010110000 "x
#58587752
1L
0L
b00000010000000000000000000000000 Q
b0011111101010001000101101111011000001000001001101110001001100101 "x
#58587904
1L
0L
b00000100 P
b00000000 O
b00011111 N
b00001010 M
b0011111101010001000101001100011110101111101000111110100101110110 "x
#58587912
1L
0L
b00001101001111111100000101000000 Q
b0011111101010001000100011111111010111000101101011100011100101011 "x
#58588448
1"X
b0011111101010001000100010100101001010101001110001100000110010011 "x
#59588448
0"X
b0011111101100000101110000010011100101011111100010111111000010000 "x
1L
0L
b00000001 P
b00000000 O
b00010111 N
b00001000 M
b0011111101100000101101110111111110101010111111010110011010010101 "x
#59588456
1L
0L
b01111001000000000000000000000000 Q
b0011111101100000101101100001001010011000100000000110000101011100 "x
#59588864
1L
0L
b00000001 P
b00001110 O
b00011011 N
b00001110 M
b0011111101100000101101010111110001000101100110000011001000001000 "x
#59588872
1L
0L
b00000000111111111111000000000000 Q
b0011111101100000101101000000101011100111100110000011001011000101 "x
#60602592
1L
0L
b00000100 P
b00000000 O
b00000111 N
b00001000 M
b00000000000010010100111100000000 R
b0011111101010000100001101101100001000011010001001111000010011000 "x
#60602600
1L
0L
b00001010000000000000000000000000 Q
b0011111101010000100000111011000011001111000101010101000101110110 "x
#60602752
1L
0L
b00000100 P
b00000000 O
b00011111 N
b00001010 M
b0011111101010000100000011000001001110110100100100101100010001000 "x
#60602760
1L
0L
b00001000000000000000000010011000 Q
b0011111101010000011111100111110101011110011110101000100110110100 "x
#60603296
1L
0L
b00000100 P
b00000000 O
b00000111 N
b00001000 M
b0011111101010000011111011100100011111010111111011000010000011100 "x
#60603304
1L
0L
b00000001000000000000000000000000 Q
b0011111101010000011110101111011101101101000010010110110110111101 "x
#60603456
1L
0L
b00000100 P
b00000000 O
b00011111 N
b00001010 M
b0011111101010000011110001001111000100001011010001011000001101110 "x
#60603464
1L
0L
b00000001000000010000000000100000 Q
b0011111101010000011101011100110010010011011101001001101000001111 "x
#60604000
1"X
b0011111101010000011101001100001001001001101111000000101110110101 "x
#60605000
0"X
b0011111101010000011101011011001011001110011000101011110111010100 "x
#60615000
1L
0L
b00000100 P
b00000000 O
b00000111 N
b00001000 M
b0011111101010000100111001000110111110011010100001100110110101100 "x
#60615008
1L
0L
b00000001000000000000000000000000 Q
b0011111101010000100110010110011001111111001000010010111010001010 "x
#60615160
1L
0L
b00000100 P
b00000000 O
b00011111 N
b00001010 M
b0011111101010000100101110100000010111101101001000010100110110000 "x
#60615168
1L
0L
b00000001000000010000000000000000 Q
b0011111101010000100101000111011111000110101101100000011101100100 "x
#60615704
1"X
b0011111101010000100100111100101111111010001111101111010111011111 "x
#60616704
0"X
b0011111101010000100101001100010100010101111010111001110000010011 "x
#60716704
1L
0L
b00000001 P
b00000000 O
b00010111 N
b00001000 M
b0011111101010010001101010011111101011010100100010111100110011000 "x
#60716712
1L
0L
b01111001000000000000000000000000 Q
b0011111101010010001100100011101001000010011110011010101011000101 "x
#60717120
1L
0L
b00000001 P
b00001110 O
b00011011 N
b00001110 M
b0011111101010010001100001110001010101001100010111000011110111100 "x
#60717128
1L
0L
b00000000111111111111000000000000 Q
b0011111101010010001011100000100010000100100100010111110101001001 "x
#60820848
1L
0L
b00000100 P
b00000000 O
b00000111 N
b00001000 M
b00000000000010010100111100000000 R
b0011111100011010000000010011001100000101111001101100100111001111 "x
#60820856
1L
0L
b00001010000000000000000000000000 Q
b0011111100011001110101001010001110010111000001001010010100010010 "x
#60821008
1L
0L
b00000100 P
b00000000 O
b00011111 N
b00001010 M
b0011111100011001101100101101000011101111100100111001100010011100 "x
#60821016
1L
0L
b00011000000000000000000010011000 Q
b0011111100011001100001011011100000010000010100100011001010101000 "x
#60821552
1L
0L
b00000100 P
b00000000 O
b00000111 N
b00001000 M
b0011111100011001011110010101111011110111110000110101011010111110 "x
#60821560
1L
0L
b00000001000000000000000000000000 Q
b0011111100011001010011001100111110001000111000010011001000000001 "x
#60821712
1L
0L
b00000100 P
b00000000 O
b00011111 N
b00001010 M
b0011111100011001001010100111001101110001000100001110010001010100 "x
#60821720
1L
0L
b00000001000000010000000000100000 Q
b0011111100011000111111010101101010010001110011110111111001100001 "x
#60822256
1"X
b0011111100011000111100010000000101111001010000001010001001110111 "x
#60823256
0"X
b0011111100011001000000001001001100110100000010110000010110101001 "x
#60833256
1L
0L
b00000100 P
b00000000 O
b00000111 N
b00001000 M
b0011111100011011011100000110101101000100011010010000011111111001 "x
#60833264
1L
0L
b00000001000000000000000000000000 Q
b0011111100011011010000101100100011110100110010000110000011001111 "x
#60833416
1L
0L
b00000100 P
b00000000 O
b00011111 N
b00001010 M
b0011111100011011001000000110110011011100111110000001001100100010 "x
#60833424
1L
0L
b00000001000000010000000000000000 Q
b0011111100011010111100110101001111111101101101101010110100101111 "x
#60833960
1"X
b0011111100011010111010010010000010100110101001001101011000011111 "x
#60834960
0"X
b0011111100011010111101100000001100101111100100101111001101000000 "x
#60934960
1L
0L
b00000001 P
b00000000 O
b00010111 N
b00001000 M
b0011111100101010011111110101110100101101010101111010011100000110 "x
#60934968
1L
0L
b01111001000000000000000000000000 Q
b0011111100101010011010000000001010010101001010000001001000111011 "x
#60935376
1L
0L
b00000001 P
b00001110 O
b00011011 N
b00001110 M
b0011111100101010010111100101100010101110011101010111110001100010 "x
#60935384
1L
0L
b00000000111111111111000000000000 Q
b0011111100101010010001110100001011001110011101011000100000110010 "x
#61039104
1L
0L
b00000100 P
b00000000 O
b00000111 N
b00001000 M
b00000000000010010100111100000000 R
b0011111100011001111111011111101001100011101010110100001010000110 "x
#61039112
1L
0L
b00001010000000000000000000000000 Q
b0011111100011001110100010110101011110100110010010001110111001010 "x
#61039264
1L
0L
b00000100 P
b00000000 O
b00011111 N
b00001010 M
b0011111100011001101011110000111011011100111110001101000000011101 "x
#61039272
1L
0L
b00101000000000000000000010011000 Q
b0011111100011001100000010110110010001101010110000010100011110011 "x
#61039808
1L
0L
b00000100 P
b00000000 O
b00000111 N
b00001000 M
b0011111100011001011101110011100100110110010001100101000111100011 "x
#61039816
1L
0L
b00000001000000000000000000000000 Q
b0011111100011001010001011101010011010100000010101110001000111010 "x
#61039968
1L
0L
b00000100 P
b00000000 O
b00011111 N
b00001010 M
b0011111100011001001000110111100010111100001110101001010010001101 "x
#61039976
1L
0L
b00000001000000010000000000100000 Q
b0011111100011000111100100001010001011001111111110010010011100100 "x
#61040512
1"X
b0011111100011000111001110101011110010010100011100000110010011110 "x
#61041512
0"X
b0011111100011000111101011101011001101100100110011110110101100011 "x
#61051512
1L
0L
b00000100 P
b00000000 O
b00000111 N
b00001000 M
b0011111100011011011001101100000101011101101101100111001000100001 "x
#61051520
1L
0L
b00000001000000000000000000000000 Q
b0011111100011011001110100011000111101110110101000100110101100100 "x
#61051672
1L
0L
b00000100 P
b00000000 O
b00011111 N
b00001010 M
b0011111100011011000101000001001111000100011010010011011100111000 "x
#61051680
1L
0L
b00000001000000010000000000000000 Q
b0011111100011010111001111000010001010101100001110001001001111011 "x
#61052216
1"X
b0011111100011010110111010101000011111110011101010011101101101100 "x
#61053216
0"X
b0011111100011010111011000101100101001000111000000101110101101000 "x
#61153216
1L
0L
b00000001 P
b00000000 O
b00010111 N
b00001000 M
b0011111100101010011110101100110011110010001011011111110010110101 "x
#61153224
1L
0L
b01111001000000000000000000000000 Q
b0011111100101010011000111011011100010010001011100000100010000101 "x
#61153632
1L
0L
b00000001 P
b00001110 O
b00011011 N
b00001110 M
b0011111100101010010110100101000111100011101010110001001101001000 "x
#61153640
1L
0L
b00000000111111111111000000000000 Q
b0011111100101010010000100010100100100010111011001001110010101010 "x
#61257360
1L
0L
b00000100 P
b00000000 O
b00000111 N
b00001000 M
b00000000000010010100111100000000 R
b0011111100011010000000111110001000110111110000110000111111100000 "x
#61257368
1L
0L
b00001010000000000000000000000000 Q
b0011111100011001110101100011111111101000001000100110100010110110 "x
#61257520
1L
0L
b00000100 P
b00000000 O
b00011111 N
b00001010 M
b0011111100011001101100101101000011101111100100111001100010011100 "x
#61257528
1L
0L
b00111000000000000000000010011000 Q
b0011111100011001100001100100000110000000101100010111001111011111 "x
#61258064
1L
0L
b00000100 P
b00000000 O
b00000111 N
b00001000 M
b0011111100011001011101110011100100110110010001100101000111100011 "x
#61258072
1L
0L
b00000001000000000000000000000000 Q
b0011111100011001010010100010000001010111000001001110101111110000 "x
#61258224
1L
0L
b00000100 P
b00000000 O
b00011111 N
b00001010 M
b0011111100011001001000010101001011111010101111011000111110110010 "x
#61258232
1L
0L
b00000001000000010000000000100000 Q
b0011111100011000111101000011101000011011011111000010100110111111 "x
#61258768
1"X
b0011111100011000111010010111110101010100000010110001000101111001 "x
#61259768
0"X
b0011111100011000111100111011000010101011000111001110100010001000 "x
#61269768
1L
0L
b00000100 P
b00000000 O
b00000111 N
b00001000 M
b0011111100011011011001001001101110011100001110010110110101000110 "x
