test_coreanalyzer.vcd
$timescale 1 ns $end
$var wire 1 ! ttl/led0 $end
$var wire 1 " ttl/led1 $end
$var wire 1 # ttl/led2 $end
$var wire 1 $ ttl/led3 $end
$var wire 1 % ttl/led4 $end
$var wire 1 & ttl/led5 $end
$var wire 1 ' ttl/led6 $end
$var wire 1 ( ttl/led7 $end
$scope module spi2/spi_sampler0_adc $end
$var wire 1 ) spi_sampler0_adc/stb $end
$var wire 8 * spi_sampler0_adc/flags $end
$var wire 5 + spi_sampler0_adc/length $end
$var wire 8 , spi_sampler0_adc/div $end
$var wire 8 - spi_sampler0_adc/chip_select $end
$var wire 32 . spi_sampler0_adc/write $end
$var wire 32 / spi_sampler0_adc/read $end
$upscope $end
$scope module spi2/spi_sampler0_pgia $end
$var wire 1 0 spi_sampler0_pgia/stb $end
$var wire 8 1 spi_sampler0_pgia/flags $end
$var wire 5 2 spi_sampler0_pgia/length $end
$var wire 8 3 spi_sampler0_pgia/div $end
$var wire 8 4 spi_sampler0_pgia/chip_select $end
$var wire 32 5 spi_sampler0_pgia/write $end
$var wire 32 6 spi_sampler0_pgia/read $end
$upscope $end
$scope module spi2/spi_sampler1_pgia $end
$var wire 1 7 spi_sampler1_pgia/stb $end
$var wire 8 8 spi_sampler1_pgia/flags $end
$var wire 5 9 spi_sampler1_pgia/length $end
$var wire 8 : spi_sampler1_pgia/div $end
$var wire 8 ; spi_sampler1_pgia/chip_select $end
$var wire 32 < spi_sampler1_pgia/write $end
$var wire 32 = spi_sampler1_pgia/read $end
$upscope $end
$scope module spi2/spi_sampler2_adc $end
$var wire 1 > spi_sampler2_adc/stb $end
$var wire 8 ? spi_sampler2_adc/flags $end
$var wire 5 @ spi_sampler2_adc/length $end
$var wire 8 A spi_sampler2_adc/div $end
$var wire 8 B spi_sampler2_adc/chip_select $end
$var wire 32 C spi_sampler2_adc/write $end
$var wire 32 D spi_sampler2_adc/read $end
$upscope $end
$scope module spi2/spi_sampler2_pgia $end
$var wire 1 E spi_sampler2_pgia/stb $end
$var wire 8 F spi_sampler2_pgia/flags $end
$var wire 5 G spi_sampler2_pgia/length $end
$var wire 8 H spi_sampler2_pgia/div $end
$var wire 8 I spi_sampler2_pgia/chip_select $end
$var wire 32 J spi_sampler2_pgia/write $end
$var wire 32 K spi_sampler2_pgia/read $end
$upscope $end
$scope module spi2/spi_urukul0 $end
$var wire 1 L spi_urukul0/stb $end
$var wire 8 M spi_urukul0/flags $end
$var wire 5 N spi_urukul0/length $end
$var wire 8 O spi_urukul0/div $end
$var wire 8 P spi_urukul0/chip_select $end
$var wire 32 Q spi_urukul0/write $end
$var wire 32 R spi_urukul0/read $end
$upscope $end
$scope module spi2/spi_urukul1 $end
$var wire 1 S spi_urukul1/stb $end
$var wire 8 T spi_urukul1/flags $end
$var wire 5 U spi_urukul1/length $end
$var wire 8 V spi_urukul1/div $end
$var wire 8 W spi_urukul1/chip_select $end
$var wire 32 X spi_urukul1/write $end
$var wire 32 Y spi_urukul1/read $end
$upscope $end
$scope module spi2/spi_urukul2 $end
$var wire 1 Z spi_urukul2/stb $end
$var wire 8 [ spi_urukul2/flags $end
$var wire 5 \ spi_urukul2/length $end
$var wire 8 ] spi_urukul2/div $end
$var wire 8 ^ spi_urukul2/chip_select $end
$var wire 32 _ spi_urukul2/write $end
$var wire 32 ` spi_urukul2/read $end
$upscope $end
$scope module spi2/spi_urukul3 $end
$var wire 1 a spi_urukul3/stb $end
$var wire 8 b spi_urukul3/flags $end
$var wire 5 c spi_urukul3/length $end
$var wire 8 d spi_urukul3/div $end
$var wire 8 e spi_urukul3/chip_select $end
$var wire 32 f spi_urukul3/write $end
$var wire 32 g spi_urukul3/read $end
$upscope $end
$scope module spi2/spi_urukul4 $end
$var wire 1 h spi_urukul4/stb $end
$var wire 8 i spi_urukul4/flags $end
$var wire 5 j spi_urukul4/length $end
$var wire 8 k spi_urukul4/div $end
$var wire 8 l spi_urukul4/chip_select $end
$var wire 32 m spi_urukul4/write $end
$var wire 32 n spi_urukul4/read $end
$upscope $end
$scope module spi2/spi_urukul5 $end
$var wire 1 o spi_urukul5/stb $end
$var wire 8 p spi_urukul5/flags $end
$var wire 5 q spi_urukul5/length $end
$var wire 8 r spi_urukul5/div $end
$var wire 8 s spi_urukul5/chip_select $end
$var wire 32 t spi_urukul5/write $end
$var wire 32 u spi_urukul5/read $end
$upscope $end
$scope module spi2/spi_urukul6 $end
$var wire 1 v spi_urukul6/stb $end
$var wire 8 w spi_urukul6/flags $end
$var wire 5 x spi_urukul6/length $end
$var wire 8 y spi_urukul6/div $end
$var wire 8 z spi_urukul6/chip_select $end
$var wire 32 { spi_urukul6/write $end
$var wire 32 | spi_urukul6/read $end
$upscope $end
$scope module spi2/spi_zotino0 $end
$var wire 1 } spi_zotino0/stb $end
$var wire 8 ~ spi_zotino0/flags $end
$var wire 5 "! spi_zotino0/length $end
$var wire 8 "" spi_zotino0/div $end
$var wire 8 "# spi_zotino0/chip_select $end
$var wire 32 "$ spi_zotino0/write $end
$var wire 32 "% spi_zotino0/read $end
$upscope $end
$var wire 1 "& ttl/ttl0 $end
$var wire 1 "' ttl/ttl1 $end
$var wire 1 "( ttl/ttl10 $end
$var wire 1 ") ttl/ttl11 $end
$var wire 1 "* ttl/ttl12 $end
$var wire 1 "+ ttl/ttl13 $end
$var wire 1 ", ttl/ttl14 $end
$var wire 1 "- ttl/ttl15 $end
$var wire 1 ". ttl/ttl16 $end
$var wire 1 "/ ttl/ttl17 $end
$var wire 1 "0 ttl/ttl18 $end
$var wire 1 "1 ttl/ttl19 $end
$var wire 1 "2 ttl/ttl2 $end
$var wire 1 "3 ttl/ttl20 $end
$var wire 1 "4 ttl/ttl21 $end
$var wire 1 "5 ttl/ttl22 $end
$var wire 1 "6 ttl/ttl23 $end
$var wire 1 "7 ttl/ttl24 $end
$var wire 1 "8 ttl/ttl25 $end
$var wire 1 "9 ttl/ttl26 $end
$var wire 1 ": ttl/ttl27 $end
$var wire 1 "; ttl/ttl28 $end
$var wire 1 "< ttl/ttl29 $end
$var wire 1 "= ttl/ttl3 $end
$var wire 1 "> ttl/ttl30 $end
$var wire 1 "? ttl/ttl31 $end
$var wire 1 "@ ttl/ttl32 $end
$var wire 1 "A ttl/ttl33 $end
$var wire 1 "B ttl/ttl34 $end
$var wire 1 "C ttl/ttl35 $end
$var wire 1 "D ttl/ttl36 $end
$var wire 1 "E ttl/ttl37 $end
$var wire 1 "F ttl/ttl38 $end
$var wire 1 "G ttl/ttl39 $end
$var wire 1 "H ttl/ttl4 $end
$var wire 1 "I ttl/ttl40 $end
$var wire 1 "J ttl/ttl41 $end
$var wire 1 "K ttl/ttl42 $end
$var wire 1 "L ttl/ttl43 $end
$var wire 1 "M ttl/ttl44 $end
$var wire 1 "N ttl/ttl45 $end
$var wire 1 "O ttl/ttl46 $end
$var wire 1 "P ttl/ttl47 $end
$var wire 1 "Q ttl/ttl5 $end
$var wire 1 "R ttl/ttl6 $end
$var wire 1 "S ttl/ttl7 $end
$var wire 1 "T ttl/ttl8 $end
$var wire 1 "U ttl/ttl9 $end
$var wire 1 "V ttl/ttl_sampler0_cnv $end
$var wire 1 "W ttl/ttl_sampler2_cnv $end
$var wire 1 "X ttl/ttl_urukul0_io_update $end
$var wire 1 "Y ttl/ttl_urukul0_sw0 $end
$var wire 1 "Z ttl/ttl_urukul0_sw1 $end
$var wire 1 "[ ttl/ttl_urukul0_sw2 $end
$var wire 1 "\ ttl/ttl_urukul0_sw3 $end
$var wire 64 "] ttl_clkgen/ttl_urukul0_sync $end
$var wire 1 "^ ttl/ttl_urukul1_io_update $end
$var wire 1 "_ ttl/ttl_urukul1_sw0 $end
$var wire 1 "` ttl/ttl_urukul1_sw1 $end
$var wire 1 "a ttl/ttl_urukul1_sw2 $end
$var wire 1 "b ttl/ttl_urukul1_sw3 $end
$var wire 64 "c ttl_clkgen/ttl_urukul1_sync $end
$var wire 1 "d ttl/ttl_urukul4_io_update $end
$var wire 1 "e ttl/ttl_urukul4_sw0 $end
$var wire 1 "f ttl/ttl_urukul4_sw1 $end
$var wire 1 "g ttl/ttl_urukul4_sw2 $end
$var wire 1 "h ttl/ttl_urukul4_sw3 $end
$var wire 64 "i ttl_clkgen/ttl_urukul4_sync $end
$var wire 1 "j ttl/ttl_urukul5_io_update $end
$var wire 1 "k ttl/ttl_urukul5_sw0 $end
$var wire 1 "l ttl/ttl_urukul5_sw1 $end
$var wire 1 "m ttl/ttl_urukul5_sw2 $end
$var wire 1 "n ttl/ttl_urukul5_sw3 $end
$var wire 64 "o ttl_clkgen/ttl_urukul5_sync $end
$var wire 1 "p ttl/ttl_urukul6_io_update $end
$var wire 1 "q ttl/ttl_urukul6_sw0 $end
$var wire 1 "r ttl/ttl_urukul6_sw1 $end
$var wire 1 "s ttl/ttl_urukul6_sw2 $end
$var wire 1 "t ttl/ttl_urukul6_sw3 $end
$var wire 64 "u ttl_clkgen/ttl_urukul6_sync $end
$var wire 1 "v ttl/ttl_zotino0_clr $end
$var wire 1 "w ttl/ttl_zotino0_ldac $end
$var wire 64 "x rtio_slack $end
$enddefinitions $end
#0
#-3226812658704
1L
0L
1S
0S
1L
0L
1L
0L
1L
0L
1L
0L
1L
0L
1L
0L
1L
0L
1L
0L
1L
0L
1L
0L
1L
0L
1L
0L
1L
0L
1L
0L
1L
0L
1L
0L
1L
0L
1L
0L
1L
0L
1L
0L
1L
0L
1L
0L
1L
0L
1L
0L
1L
0L
1L
0L
1L
0L
1L
0L
1L
0L
1L
0L
1L
0L
1L
0L
1L
0L
1L
0L
1L
0L
1L
0L
1L
0L
1L
0L
1L
0L
1L
0L
1L
0L
1L
0L
1L
0L
1L
0L
1L
0L
1L
0L
1S
0S
1S
0S
1S
0S
1S
0S
1S
0S
1S
0S
1S
0S
1S
0S
1S
0S
1S
0S
1S
0S
1S
0S
1S
0S
1S
0S
1S
0S
1S
0S
1S
0S
1S
0S
1S
0S
1S
0S
1S
0S
1S
0S
1S
0S
1S
0S
1S
0S
1S
0S
1S
0S
1S
0S
1S
0S
1S
0S
1S
0S
1S
0S
1S
0S
1S
0S
1S
0S
1S
0S
1S
0S
1S
0S
1S
0S
1S
0S
1S
0S
1S
0S
1S
0S
1S
0S
1S
0S
1S
0S
1S
0S
1S
0S
1S
0S
1S
0S
1S
0S
1S
0S
1S
0S
1S
0S
1S
0S
1S
0S
1S
0S
1}
0}
1}
0}
1h
0h
1o
0o
1v
0v
1h
0h
1h
0h
1h
0h
1h
0h
1h
0h
1h
0h
1h
0h
1h
0h
1h
0h
1h
0h
1h
0h
1h
0h
1h
0h
1h
0h
1h
0h
1h
0h
1h
0h
1h
0h
1h
0h
1h
0h
1h
0h
1h
0h
1h
0h
1h
0h
1h
0h
1h
0h
1h
0h
1h
0h
1h
0h
1h
0h
1h
0h
1h
0h
1h
0h
1h
0h
1h
0h
1h
0h
1h
0h
1h
0h
1h
0h
1h
0h
1h
0h
1h
0h
1h
0h
1h
0h
1h
0h
1h
0h
1h
0h
1o
0o
1o
0o
1o
0o
1o
0o
1o
0o
1o
0o
1o
0o
1o
0o
1o
0o
1o
0o
1o
0o
1o
0o
1o
0o
1o
0o
1o
0o
1o
0o
1o
0o
1o
0o
1o
0o
1o
0o
1o
0o
1o
0o
1o
0o
1o
0o
1o
0o
1o
0o
1o
0o
1o
0o
1o
0o
1o
0o
1o
0o
1o
0o
1o
0o
1o
0o
1o
0o
1o
0o
1o
0o
1o
0o
1o
0o
1o
0o
1o
0o
1o
0o
1o
0o
1o
0o
1o
0o
1o
0o
1o
0o
1o
0o
1v
0v
1v
0v
1v
0v
1v
0v
1v
0v
1v
0v
1v
0v
1v
0v
1v
0v
1v
0v
1v
0v
1v
0v
1v
0v
1v
0v
1v
0v
1v
0v
1v
0v
1v
0v
1v
0v
1v
0v
1v
0v
1v
0v
1v
0v
1v
0v
1v
0v
1v
0v
1v
0v
1v
0v
1v
0v
1v
0v
1v
0v
1v
0v
1v
0v
1v
0v
1v
0v
1v
0v
1v
0v
1v
0v
1v
0v
1v
0v
1v
0v
1v
0v
1v
0v
1v
0v
1v
0v
1v
0v
1v
0v
1v
0v
1v
0v
1v
0v
1v
0v
1v
0v
#0
1L
0L
b00000001 P
b00000000 O
b10111 N
b00001000 M
b0011111100100000001101101101000101000100110011100000011110101101 "x
#1008
1L
0L
b00000001 P
b00000000 O
b10111 N
b00001000 M
b0011111100100000001011011011000011001110011110101011001100001011 "x
#1016
1L
0L
b01111001100000000000000000000000 Q
b0011111100100000000101010100001101010101100011001001101111010010 "x
#1424
1L
0L
b00000001 P
b00001110 O
b11011 N
b00001110 M
b0011111100100000000010101000011010001110000110111000001110001100 "x
#1432
1L
0L
b00000000111111111111000000000000 Q
b0011111100011111111001101110000101011100001101110001111010110111 "x
#105152
1L
0L
b00000001 P
b00000000 O
b10111 N
b00001000 M
b00000000000010010100000000000000 R
b0011111100011010000000011011110001110110010001100000101100000101 "x
#105160
1L
0L
b01111001000000000000000000000000 Q
b0011111100011001110100110000011101000101111001101110000101101110 "x
#105568
1L
0L
b00000001 P
b00000000 O
b11011 N
b00001010 M
b0011111100011001101111111011001101111000100000011011010110111100 "x
#105576
1L
0L
b00000000111111111111000000000000 Q
b0011111100011001100011111110101101100111011001000000100110111000 "x
#106048
b0100000001111101110011010110010011111111111111111111111111111111 "]
b0011111100011001010011100110101111011001111111101111010110100110 "x
#1106048
1S
0S
b00000001 W
b00000000 V
b10111 U
b00001000 T
b0011111101010001111100111010111010011111001000000111110101100000 "x
#1107056
1S
0S
b00000001 W
b00000000 V
b10111 U
b00001000 T
b0011111101010001111100110001110010010111101110110100100000010101 "x
#1107064
1S
0S
b01111001100000000000000000000000 X
b0011111101010001111100000011000101000100101101010101010101111100 "x
#1107472
1S
0S
b00000001 W
b00001110 V
b11011 U
b00001110 T
b0011111101010001111011110000010010011110111001001111011011010100 "x
#1107480
1S
0S
b00000000111111111111000000000000 X
b0011111101010001111011000010101001111001111010101110110001100010 "x
#1211200
1S
0S
b00000001 W
b00000000 V
b10111 U
b00001000 T
b00000000000010010100000000000000 Y
b0011111100011010000000001010100110010101100001111000100010011000 "x
#1211208
1S
0S
b01111001000000000000000000000000 X
b0011111100011001110100100111110111010101100001111010000000110111 "x
#1211616
1S
0S
b00000001 W
b00000000 V
b11011 U
b00001010 T
b0011111100011001101111111011001101111000100000011011010110111100 "x
#1211624
1S
0S
b00000000111111111111000000000000 X
b0011111100011001100100100001000100101000111000010000111010010010 "x
#1212096
b0100000001111101110011010110010011111111111111111111111111111111 "c
b0011111100011001011001001111100001001001100111111010100010011111 "x
#2212096
1h
0h
b00000001 l
b00000000 k
b10111 j
b00001000 i
b0011111101010001111101001101001010101101111010101110011111110100 "x
#2213104
1h
0h
b00000001 l
b00000000 k
b10111 j
b00001000 i
b0011111101010001111101000101000111010100100100011001101011010000 "x
#2213112
1h
0h
b01111001100000000000000000000000 m
b0011111101010001111100010100010000100101011100111101011111101001 "x
#2213520
1h
0h
b00000001 l
b00001110 k
b11011 j
b00001110 i
b0011111101010001111100000000111011101000100111011000010100101110 "x
#2213528
1h
0h
b00000000111111111111000000000000 m
b0011111101010001111011001101111011011101011001111111000111111001 "x
#2317248
1h
0h
b00000001 l
b00000000 k
b10111 j
b00001000 i
b00000000000010010100000000000000 n
b0011111100011001110100110000011101000101111001101110000101101110 "x
#2317256
1h
0h
b01111001000000000000000000000000 m
b0011111100011001101000100010110001010100000010101011001011111100 "x
#2317664
1h
0h
b00000001 l
b00000000 k
b11011 j
b00001010 i
b0011111100011001100010100000001110010011010011000011110001011110 "x
#2317672
1h
0h
b00000000111111111111000000000000 m
b0011111100011001010110111101011111010011010011000101001111111101 "x
#2318144
b0100000001111101110011010110010011111111111111111111111111111111 "i
b0011111100011001001100000101101101000101001010001011000110101110 "x
#3318144
1o
0o
b00000001 s
b00000000 r
b10111 q
b00001000 p
b0011111101010001111100011011001111010000110000010011110011100110 "x
#3319152
1o
0o
b00000001 s
b00000000 r
b10111 q
b00001000 p
b0011111101010001111100010101110111101010100001011011010000100100 "x
#3319160
1o
0o
b01111001100000000000000000000000 t
b0011111101010001111011100111101100101110100001011011010110011110 "x
#3319568
1o
0o
b00000001 s
b00001110 r
b11011 q
b00001110 p
b0011111101010001111011010100111010001000101101010101011011110110 "x
#3319576
1o
0o
b00000000111111111111000000000000 t
b0011111101010001111010100101101010011110101010010111000001001001 "x
#3423296
1o
0o
b00000001 s
b00000000 r
b10111 q
b00001000 p
b00000000000010010100000000000000 u
b0011111100011001110101001010001110010111000001001010010100010010 "x
#3423304
1o
0o
b01111001000000000000000000000000 t
b0011111100011001101001010110010011110110010001100011101001000100 "x
#3423712
1o
0o
b00000001 s
b00000000 r
b11011 q
b00001010 p
b0011111100011001100100101001101010011001010000000100111111001001 "x
#3423720
1o
0o
b00000000111111111111000000000000 t
b0011111100011001011001000110111011011001010000000110011101101000 "x
#3424192
b0100000001111101110011010110010011111111111111111111111111111111 "o
b0011111100011001001101111101111101101010010111100100001010101100 "x
#4424192
1v
0v
b00000001 z
b00000000 y
b10111 x
b00001000 w
b0011111101010001111100101001001100100111010111000000011011011111 "x
#4425200
1v
0v
b00000001 z
b00000000 y
b10111 x
b00001000 w
b0011111101010001111100100010001101111100000011101010000111100010 "x
#4425208
1v
0v
b01111001100000000000000000000000 {
b0011111101010001111011110100100101010111000101001001011101110000 "x
#4425616
1v
0v
b00000001 z
b00001110 y
b11011 x
b00001110 w
b0011111101010001111011100000101110000011001110000101000010100001 "x
#4425624
1v
0v
b00000000111111111111000000000000 {
b0011111101010001111010110000011001101011001000001000000111001101 "x
#4529344
1v
0v
b00000001 z
b00000000 y
b10111 x
b00001000 w
b00000000000010010100000000000000 |
b0011111100011001110101001010001110010111000001001010010100010010 "x
#4529352
1v
0v
b01111001000000000000000000000000 {
b0011111100011001101001010110010011110110010001100011101001000100 "x
#4529760
1v
0v
b00000001 z
b00000000 y
b11011 x
b00001010 w
b0011111100011001100011100100111100010110010001100100011000010100 "x
#4529768
1v
0v
b00000000111111111111000000000000 {
b0011111100011001010110110100111001100010111011010001001011000110 "x
#4530240
b0100000001111101110011010110010011111111111111111111111111111111 "u
b0011111100011001001010001101011100011111111100110010000010110000 "x
#55530240
1L
0L
b00000100 P
b00000000 O
b00111 N
b00001000 M
b0011111110000101010000101100001110000101001101101001110001011011 "x
#55530248
1L
0L
b00000000000000000000000000000000 Q
b0011111110000101010000100110011100101101101101101001110010001010 "x
#55530400
1L
0L
b00000100 P
b00000000 O
b11111 N
b00001010 M
b0011111110000101010000100001111100111100111001001100000001100111 "x
#55530408
1L
0L
b00000000000000000000000000000010 Q
b0011111110000101010000011100001011100101011001001100000010010111 "x
#55530944
1"X
b0011111110000101010000011010000110011100001011011010111011001011 "x
#56530944
0"X
b0011111110000111010011010001100011100010011110100000100000101111 "x
#57530944
1L
0L
b00000100 P
b00000000 O
b00111 N
b00001000 M
b0011111110001001010110010000011001000101010110000011110110011110 "x
#57530952
1L
0L
b10000011000000000000000000000000 Q
b0011111110001001010110001010011111001000000101101100000011001000 "x
#57531104
1L
0L
b00000100 P
b00001110 O
b11111 N
b00001110 M
b0011111110001001010110000101101001111000111000010010110000011010 "x
#57531112
1L
0L
b00000000000000000000000000000000 Q
b0011111110001001010101111111111100110100010000011110101011001011 "x
#57585344
1L
0L
b00000100 P
b00000000 O
b00111 N
b00001000 M
b00000000000000000111111101111111 R
b0011111100001001110010000100101001111110011101011100100100101000 "x
#57585352
1L
0L
b00000001000000000000000000000000 Q
b0011111100001001011011100001100010111111111100101111110101000001 "x
#57585504
1L
0L
b00000100 P
b00000000 O
b11111 N
b00001010 M
b0011111100001001001001110011101011001110110101010101110100001100 "x
#57585512
1L
0L
b00000001000000010000000000100000 Q
b0011111100001000110011010000100100010000010100101001000100100101 "x
#57586048
1"X
b0011111100001000101010001000011100110111000001010011111010011101 "x
#58586048
0"X
b0011111101010001001001000100100000111100011000100110010010000010 "x
1L
0L
b00000100 P
b00000000 O
b00111 N
b00001000 M
b0011111101010001001000101111000010100011011101000100000101111001 "x
#58586056
1L
0L
b00000010000000000000000000000000 Q
b0011111101010001001000000001011001111110011110100011011100000111 "x
#58586208
1L
0L
b00000100 P
b00000000 O
b11111 N
b00001010 M
b0011111101010001000111011001101011010110110000011010100101101010 "x
#58586216
1L
0L
b00001101001111111100010101000000 Q
b0011111101010001000110101100100101001000110011011001001100001010 "x
#58586752
1"X
b0011111101010001000110100010011000010011010111000111010110011001 "x
#58587752
0"X
b0011111101010001000110101010011011101100101101011100001010111101 "x
1L
0L
b00000100 P
b00000000 O
b00111 N
b00001000 M
b0011111101010001000110010110100100011000110110010111101111101110 "x
#58587760
1L
0L
b00000010000000000000000000000000 Q
b0011111101010001000101100100000110100100101010011101110011001101 "x
#58587912
1L
0L
b00000100 P
b00000000 O
b11111 N
b00001010 M
b0011111101010001000101000001101111100011001011001101011111110010 "x
#58587920
1L
0L
b00001101001111111100000101000000 Q
b0011111101010001000100010001111101100010000110101111110100110010 "x
#58588456
1"X
b0011111101010001000100000111001110010101101000111110101110101101 "x
#59588456
0"X
b0011111101100000101101111100010001100011001011010000011100110001 "x
1L
0L
b00000001 P
b00000000 O
b10111 N
b00001000 M
b0011111101100000101101110001110011100010001110001110111110110110 "x
#59588464
1L
0L
b01111001000000000000000000000000 Q
b0011111101100000101101011010111111001111101110111110101001111101 "x
#59588872
1L
0L
b00000001 P
b00001110 O
b11011 N
b00001110 M
b0011111101100000101101010001000011100101110011011100011100010101 "x
#59588880
1L
0L
b00000000111111111111000000000000 Q
b0011111101100000101100111010001111010011010100001100000111011100 "x
#60602600
1L
0L
b00000100 P
b00000000 O
b00111 N
b00001000 M
b00000000000010010100000100000000 R
b0011111101010000100001101110100101110001010100001101100010111110 "x
#60602608
1L
0L
b00001010000000000000000000000000 Q
b0011111101010000100000111100000111111101001000010011100110011101 "x
#60602760
1L
0L
b00000100 P
b00000000 O
b11111 N
b00001010 M
b0011111101010000100000010111000101001000100001100111000001100001 "x
#60602768
1L
0L
b00001000000000000000000010011000 Q
b0011111101010000011111101001111110111010100100100101101000000010 "x
#60603304
1L
0L
b00000100 P
b00000000 O
b00111 N
b00001000 M
b0011111101010000011111011001111000000111110111111011111110111011 "x
#60603312
1L
0L
b00000001000000000000000000000000 Q
b0011111101010000011110101100110001111001111010111010100101011100 "x
#60603464
1L
0L
b00000100 P
b00000000 O
b11111 N
b00001010 M
b0011111101010000011110001001111000100001011010001011000001101110 "x
#60603472
1L
0L
b00000001000000010000000000100000 Q
b0011111101010000011101011100110010010011011101001001101000001111 "x
#60604008
1"X
b0011111101010000011101010001100000101111111101111001010001110111 "x
#60605008
0"X
b0011111101010000011101100000100010110100100111100100011010010111 "x
#60615008
1L
0L
b00000100 P
b00000000 O
b00111 N
b00001000 M
b0011111101010000100111010000011000110101101001000010011010111100 "x
#60615016
1L
0L
b00000001000000000000000000000000 Q
b0011111101010000100110100011110100111110101101100000010001110000 "x
#60615168
1L
0L
b00000100 P
b00000000 O
b11111 N
b00001010 M
b0011111101010000100110000000011001001111001011010001011101101110 "x
#60615176
1L
0L
b00000001000000010000000000000000 Q
b0011111101010000100101010011010011000001001110010000000100001111 "x
#60615712
1"X
b0011111101010000100101001000000001011101101110111111101101110111 "x
#60616712
0"X
b0011111101010000100101010111100101111001011010001010000110101010 "x
#60716712
1L
0L
b00000001 P
b00000000 O
b10111 N
b00001000 M
b0011111101010010001101011111001110111110000011100111111100110000 "x
#60716720
1L
0L
b01111001000000000000000000000000 Q
b0011111101010010001100101110111010100101111101101011000001011101 "x
#60717128
1L
0L
b00000001 P
b00001110 O
b11011 N
b00001110 M
b0011111101010010001100011011000011010010000110100110100110001110 "x
#60717136
1L
0L
b00000000111111111111000000000000 Q
b0011111101010010001011101101011010101101001000000101111100011011 "x
#60820856
1L
0L
b00000100 P
b00000000 O
b00111 N
b00001000 M
b00000000000010010100000100000000 R
b0011111100011010000000010011001100000101111001101100100111001111 "x
#60820864
1L
0L
b00001010000000000000000000000000 Q
b0011111100011001110011101011101111000010111011001101011110111000 "x
#60821016
1L
0L
b00000100 P
b00000000 O
b11111 N
b00001010 M
b0011111100011001101010110100110011001010010111100000011110011110 "x
#60821024
1L
0L
b00011000000000000000000010011000 Q
b0011111100011001011110100111000111011000100000011101100100101011 "x
#60821560
1L
0L
b00000100 P
b00000000 O
b00111 N
b00001000 M
b0011111100011001011011010000010111011111001101000111101011010100 "x
#60821568
1L
0L
b00000001000000000000000000000000 Q
b0011111100011001001111111110110011111111111100110001010011100000 "x
#60821720
1L
0L
b00000100 P
b00000000 O
b11111 N
b00001010 M
b0011111100011001000110001011101111110100110010010111110001000111 "x
#60821728
1L
0L
b00000001000000010000000000100000 Q
b0011111100011000111010111010001100010101100010000001011001010100 "x
#60822264
1"X
b0011111100011000111000010110111110111110011101100011111101000100 "x
#60823264
0"X
b0011111100011000111010101001000000110100110010011001001111100110 "x
#60833264
1L
0L
b00000100 P
b00000000 O
b00111 N
b00001000 M
b0011111100011011010110110111101100100101111001100001100010100100 "x
#60833272
1L
0L
b00000001000000000000000000000000 Q
b0011111100011011001011100110001001000110101001001011001010110000 "x
#60833424
1L
0L
b00000100 P
b00000000 O
b11111 N
b00001010 M
b0011111100011011000010010101011011111100111110000001111011110010 "x
#60833432
1L
0L
b00000001000000010000000000000000 Q
b0011111100011010110111001100011110001110000101011111101000110101 "x
#60833968
1"X
b0011111100011010110011011011111101000011101010101101100000111001 "x
#60834968
0"X
b0011111100011010110111001100011110001110000101011111101000110101 "x
#60934968
1L
0L
b00000001 P
b00000000 O
b10111 N
b00001000 M
b0011111100101010011100110000010000010100110010001100101100011100 "x
#60934976
1L
0L
b01111001000000000000000000000000 Q
b0011111100101010010110110110010011000100011010011001010110110101 "x
#60935384
1L
0L
b00000001 P
b00001110 O
b11011 N
b00001110 M
b0011111100101010010100001010011111111100111110000111110101101111 "x
#60935392
1L
0L
b00000000111111111111000000000000 Q
b0011111100101010001110011001001000011100111110001000100100111111 "x
#61039112
1L
0L
b00000100 P
b00000000 O
b00111 N
b00001000 M
b00000000000010010100000100000000 R
b0011111100011001111111011111101001100011101010110100001010000110 "x
#61039120
1L
0L
b00001010000000000000000000000000 Q
b0011111100011001110011101011101111000010111011001101011110111000 "x
#61039272
1L
0L
b00000100 P
b00000000 O
b11111 N
b00001010 M
b0011111100011001101010111101011000111010101111010100100011010100 "x
#61039280
1L
0L
b00101000000000000000000010011000 Q
b0011111100011001011110111000010010111001010000000101101110011001 "x
#61039816
1L
0L
b00000100 P
b00000000 O
b00111 N
b00001000 M
b0011111100011001011100010101000101100010001011101000010010001001 "x
#61039824
1L
0L
b00000001000000000000000000000000 Q
b0011111100011001010000110010010110100010001011101001110000101001 "x
#61039976
1L
0L
b00000100 P
b00000000 O
b11111 N
b00001010 M
b0011111100011001001000000100000000011001111111110000110101000101 "x
#61039984
1L
0L
b00000001000000010000000000100000 Q
b0011111100011000111100110010011100111010101111011010011101010010 "x
#61040520
1"X
b0011111100011000111010000110101001110011010011001000111100001011 "x
#61041520
0"X
b0011111100011000111101111111110000101110000101101111001000111110 "x
#61051520
1L
0L
b00000100 P
b00000000 O
b00111 N
b00001000 M
b0011111100011011011001011010111001111100111101111110111110110011 "x
#61051528
1L
0L
b00000001000000000000000000000000 Q
b0011111100011011001101000100101000011010101111001000000000001010 "x
#61051680
1L
0L
b00000100 P
b00000000 O
b11111 N
b00001010 M
b0011111100011011000100010110010010010010100011001111000100100110 "x
#61051688
1L
0L
b00000001000000010000000000000000 Q
b0011111100011010111001000100101110110011010010111000101100110011 "x
#61052224
1"X
b0011111100011010110110100001100001011100001110011011010000100100 "x
#61053224
0"X
b0011111100011010111001100111000101110100110010001001000000001110 "x
#61153224
1L
0L
b00000001 P
b00000000 O
b10111 N
b00001000 M
b0011111100101010011101111001010001001111111100100111010101101101 "x
#61153232
1L
0L
b01111001000000000000000000000000 Q
b0011111100101010011000000111111001101111111100101000000100111101 "x
#61153640
1L
0L
b00000001 P
b00001110 O
b11011 N
b00001110 M
b0011111100101010010101110001100101000001011011111000101111111111 "x
#61153648
1L
0L
b00000000111111111111000000000000 Q
b0011111100101010001111110011010100111000111000001011010111111101 "x
#61257368
1L
0L
b00000100 P
b00000000 O
b00111 N
b00001000 M
b00000000000010010100000100000000 R
b0011111100011010000001110001101011011001111111101001011100101000 "x
#61257376
1L
0L
b00001010000000000000000000000000 Q
b0011111100011001110110101000101101101011000111000111001001101100 "x
#61257528
1L
0L
b00000100 P
b00000000 O
b11111 N
b00001010 M
b0011111100011001101101110001110001110010100011011010001001010001 "x
#61257536
1L
0L
b00111000000000000000000010011000 Q
b0011111100011001100010100000001110010011010011000011110001011110 "x
#61258072
1L
0L
b00000100 P
b00000000 O
b00111 N
b00001000 M
b0011111100011001011111110100011011001011110110110010010000011000 "x
#61258080
1L
0L
b00000001000000000000000000000000 Q
b0011111100011001010100100010110111101100100110011011111000100100 "x
#61258232
1L
0L
b00000100 P
b00000000 O
b11111 N
b00001010 M
b0011111100011001001011011010110000010011010011000110101110011100 "x
#61258240
1L
0L
b00000001000000010000000000100000 Q
b0011111100011001000000010001110010100100011010100100011011100000 "x
#61258776
1"X
b0011111100011000111100100001010001011001111111110010010011100100 "x
#61259776
0"X
b0011111100011001000000010001110010100100011010100100011011100000 "x
#61269776
1L
0L
b00000100 P
b00000000 O
b00111 N
b00001000 M
b0011111100011011011100101001000100000101111001100000110011010100 "x
#61269784
1L
0L
b00000001000000000000000000000000 Q
b0011111100011011010001010111100000100110101001001010011011100001 "x
